%!PS-Adobe-3.0 EPSF-3.0
%%Creator: (MATLAB, The Mathworks, Inc. Version 9.1.0.441655 \(R2016b\). Operating System: Windows 8)
%%Title: C:/Users/simon/Documents/Unief/M1/Numerieke_simulatie_van_differentiaal_vergelijkingen/PDE/Homework_1/git/verslag/burgersequation.eps
%%CreationDate: 2016-11-10T16:11:54
%%Pages: (atend)
%%BoundingBox: 0 0 420 315
%%LanguageLevel: 3
%%EndComments
%%BeginProlog
%%BeginResource: procset (Apache XML Graphics Std ProcSet) 1.2 0
%%Version: 1.2 0
%%Copyright: (Copyright 2001-2003,2010 The Apache Software Foundation. License terms: http://www.apache.org/licenses/LICENSE-2.0)
/bd{bind def}bind def
/ld{load def}bd
/GR/grestore ld
/M/moveto ld
/LJ/setlinejoin ld
/C/curveto ld
/f/fill ld
/LW/setlinewidth ld
/GC/setgray ld
/t/show ld
/N/newpath ld
/CT/concat ld
/cp/closepath ld
/S/stroke ld
/L/lineto ld
/CC/setcmykcolor ld
/A/ashow ld
/GS/gsave ld
/RC/setrgbcolor ld
/RM/rmoveto ld
/ML/setmiterlimit ld
/re {4 2 roll M
1 index 0 rlineto
0 exch rlineto
neg 0 rlineto
cp } bd
/_ctm matrix def
/_tm matrix def
/BT { _ctm currentmatrix pop matrix _tm copy pop 0 0 moveto } bd
/ET { _ctm setmatrix } bd
/iTm { _ctm setmatrix _tm concat } bd
/Tm { _tm astore pop iTm 0 0 moveto } bd
/ux 0.0 def
/uy 0.0 def
/F {
  /Tp exch def
  /Tf exch def
  Tf findfont Tp scalefont setfont
  /cf Tf def  /cs Tp def
} bd
/ULS {currentpoint /uy exch def /ux exch def} bd
/ULE {
  /Tcx currentpoint pop def
  gsave
  newpath
  cf findfont cs scalefont dup
  /FontMatrix get 0 get /Ts exch def /FontInfo get dup
  /UnderlinePosition get Ts mul /To exch def
  /UnderlineThickness get Ts mul /Tt exch def
  ux uy To add moveto  Tcx uy To add lineto
  Tt setlinewidth stroke
  grestore
} bd
/OLE {
  /Tcx currentpoint pop def
  gsave
  newpath
  cf findfont cs scalefont dup
  /FontMatrix get 0 get /Ts exch def /FontInfo get dup
  /UnderlinePosition get Ts mul /To exch def
  /UnderlineThickness get Ts mul /Tt exch def
  ux uy To add cs add moveto Tcx uy To add cs add lineto
  Tt setlinewidth stroke
  grestore
} bd
/SOE {
  /Tcx currentpoint pop def
  gsave
  newpath
  cf findfont cs scalefont dup
  /FontMatrix get 0 get /Ts exch def /FontInfo get dup
  /UnderlinePosition get Ts mul /To exch def
  /UnderlineThickness get Ts mul /Tt exch def
  ux uy To add cs 10 mul 26 idiv add moveto Tcx uy To add cs 10 mul 26 idiv add lineto
  Tt setlinewidth stroke
  grestore
} bd
/QT {
/Y22 exch store
/X22 exch store
/Y21 exch store
/X21 exch store
currentpoint
/Y21 load 2 mul add 3 div exch
/X21 load 2 mul add 3 div exch
/X21 load 2 mul /X22 load add 3 div
/Y21 load 2 mul /Y22 load add 3 div
/X22 load /Y22 load curveto
} bd
/SSPD {
dup length /d exch dict def
{
/v exch def
/k exch def
currentpagedevice k known {
/cpdv currentpagedevice k get def
v cpdv ne {
/upd false def
/nullv v type /nulltype eq def
/nullcpdv cpdv type /nulltype eq def
nullv nullcpdv or
{
/upd true def
} {
/sametype v type cpdv type eq def
sametype {
v type /arraytype eq {
/vlen v length def
/cpdvlen cpdv length def
vlen cpdvlen eq {
0 1 vlen 1 sub {
/i exch def
/obj v i get def
/cpdobj cpdv i get def
obj cpdobj ne {
/upd true def
exit
} if
} for
} {
/upd true def
} ifelse
} {
v type /dicttype eq {
v {
/dv exch def
/dk exch def
/cpddv cpdv dk get def
dv cpddv ne {
/upd true def
exit
} if
} forall
} {
/upd true def
} ifelse
} ifelse
} if
} ifelse
upd true eq {
d k v put
} if
} if
} if
} forall
d length 0 gt {
d setpagedevice
} if
} bd
/RE { % /NewFontName [NewEncodingArray] /FontName RE -
  findfont dup length dict begin
  {
    1 index /FID ne
    {def} {pop pop} ifelse
  } forall
  /Encoding exch def
  /FontName 1 index def
  currentdict definefont pop
  end
} bind def
%%EndResource
%%BeginResource: procset (Apache XML Graphics EPS ProcSet) 1.0 0
%%Version: 1.0 0
%%Copyright: (Copyright 2002-2003 The Apache Software Foundation. License terms: http://www.apache.org/licenses/LICENSE-2.0)
/BeginEPSF { %def
/b4_Inc_state save def         % Save state for cleanup
/dict_count countdictstack def % Count objects on dict stack
/op_count count 1 sub def      % Count objects on operand stack
userdict begin                 % Push userdict on dict stack
/showpage { } def              % Redefine showpage, { } = null proc
0 setgray 0 setlinecap         % Prepare graphics state
1 setlinewidth 0 setlinejoin
10 setmiterlimit [ ] 0 setdash newpath
/languagelevel where           % If level not equal to 1 then
{pop languagelevel             % set strokeadjust and
1 ne                           % overprint to their defaults.
{false setstrokeadjust false setoverprint
} if
} if
} bd
/EndEPSF { %def
count op_count sub {pop} repeat            % Clean up stacks
countdictstack dict_count sub {end} repeat
b4_Inc_state restore
} bd
%%EndResource
%FOPBeginFontDict
%%IncludeResource: font Courier-Bold
%%IncludeResource: font Helvetica
%%IncludeResource: font Courier-BoldOblique
%%IncludeResource: font Courier-Oblique
%%IncludeResource: font Times-Roman
%%IncludeResource: font Helvetica-BoldOblique
%%IncludeResource: font Helvetica-Bold
%%IncludeResource: font Helvetica-Oblique
%%IncludeResource: font Times-BoldItalic
%%IncludeResource: font Courier
%%IncludeResource: font Times-Italic
%%IncludeResource: font Times-Bold
%%IncludeResource: font Symbol
%%IncludeResource: font ZapfDingbats
%FOPEndFontDict
%%BeginResource: encoding WinAnsiEncoding
/WinAnsiEncoding [
/.notdef /.notdef /.notdef /.notdef /.notdef
/.notdef /.notdef /.notdef /.notdef /.notdef
/.notdef /.notdef /.notdef /.notdef /.notdef
/.notdef /.notdef /.notdef /.notdef /.notdef
/.notdef /.notdef /.notdef /.notdef /.notdef
/.notdef /.notdef /.notdef /.notdef /.notdef
/.notdef /.notdef /space /exclam /quotedbl
/numbersign /dollar /percent /ampersand /quotesingle
/parenleft /parenright /asterisk /plus /comma
/hyphen /period /slash /zero /one
/two /three /four /five /six
/seven /eight /nine /colon /semicolon
/less /equal /greater /question /at
/A /B /C /D /E
/F /G /H /I /J
/K /L /M /N /O
/P /Q /R /S /T
/U /V /W /X /Y
/Z /bracketleft /backslash /bracketright /asciicircum
/underscore /quoteleft /a /b /c
/d /e /f /g /h
/i /j /k /l /m
/n /o /p /q /r
/s /t /u /v /w
/x /y /z /braceleft /bar
/braceright /asciitilde /bullet /Euro /bullet
/quotesinglbase /florin /quotedblbase /ellipsis /dagger
/daggerdbl /circumflex /perthousand /Scaron /guilsinglleft
/OE /bullet /Zcaron /bullet /bullet
/quoteleft /quoteright /quotedblleft /quotedblright /bullet
/endash /emdash /asciitilde /trademark /scaron
/guilsinglright /oe /bullet /zcaron /Ydieresis
/space /exclamdown /cent /sterling /currency
/yen /brokenbar /section /dieresis /copyright
/ordfeminine /guillemotleft /logicalnot /sfthyphen /registered
/macron /degree /plusminus /twosuperior /threesuperior
/acute /mu /paragraph /middot /cedilla
/onesuperior /ordmasculine /guillemotright /onequarter /onehalf
/threequarters /questiondown /Agrave /Aacute /Acircumflex
/Atilde /Adieresis /Aring /AE /Ccedilla
/Egrave /Eacute /Ecircumflex /Edieresis /Igrave
/Iacute /Icircumflex /Idieresis /Eth /Ntilde
/Ograve /Oacute /Ocircumflex /Otilde /Odieresis
/multiply /Oslash /Ugrave /Uacute /Ucircumflex
/Udieresis /Yacute /Thorn /germandbls /agrave
/aacute /acircumflex /atilde /adieresis /aring
/ae /ccedilla /egrave /eacute /ecircumflex
/edieresis /igrave /iacute /icircumflex /idieresis
/eth /ntilde /ograve /oacute /ocircumflex
/otilde /odieresis /divide /oslash /ugrave
/uacute /ucircumflex /udieresis /yacute /thorn
/ydieresis
] def
%%EndResource
%FOPBeginFontReencode
/Courier-Bold findfont
dup length dict begin
  {1 index /FID ne {def} {pop pop} ifelse} forall
  /Encoding WinAnsiEncoding def
  currentdict
end
/Courier-Bold exch definefont pop
/Helvetica findfont
dup length dict begin
  {1 index /FID ne {def} {pop pop} ifelse} forall
  /Encoding WinAnsiEncoding def
  currentdict
end
/Helvetica exch definefont pop
/Courier-BoldOblique findfont
dup length dict begin
  {1 index /FID ne {def} {pop pop} ifelse} forall
  /Encoding WinAnsiEncoding def
  currentdict
end
/Courier-BoldOblique exch definefont pop
/Courier-Oblique findfont
dup length dict begin
  {1 index /FID ne {def} {pop pop} ifelse} forall
  /Encoding WinAnsiEncoding def
  currentdict
end
/Courier-Oblique exch definefont pop
/Times-Roman findfont
dup length dict begin
  {1 index /FID ne {def} {pop pop} ifelse} forall
  /Encoding WinAnsiEncoding def
  currentdict
end
/Times-Roman exch definefont pop
/Helvetica-BoldOblique findfont
dup length dict begin
  {1 index /FID ne {def} {pop pop} ifelse} forall
  /Encoding WinAnsiEncoding def
  currentdict
end
/Helvetica-BoldOblique exch definefont pop
/Helvetica-Bold findfont
dup length dict begin
  {1 index /FID ne {def} {pop pop} ifelse} forall
  /Encoding WinAnsiEncoding def
  currentdict
end
/Helvetica-Bold exch definefont pop
/Helvetica-Oblique findfont
dup length dict begin
  {1 index /FID ne {def} {pop pop} ifelse} forall
  /Encoding WinAnsiEncoding def
  currentdict
end
/Helvetica-Oblique exch definefont pop
/Times-BoldItalic findfont
dup length dict begin
  {1 index /FID ne {def} {pop pop} ifelse} forall
  /Encoding WinAnsiEncoding def
  currentdict
end
/Times-BoldItalic exch definefont pop
/Courier findfont
dup length dict begin
  {1 index /FID ne {def} {pop pop} ifelse} forall
  /Encoding WinAnsiEncoding def
  currentdict
end
/Courier exch definefont pop
/Times-Italic findfont
dup length dict begin
  {1 index /FID ne {def} {pop pop} ifelse} forall
  /Encoding WinAnsiEncoding def
  currentdict
end
/Times-Italic exch definefont pop
/Times-Bold findfont
dup length dict begin
  {1 index /FID ne {def} {pop pop} ifelse} forall
  /Encoding WinAnsiEncoding def
  currentdict
end
/Times-Bold exch definefont pop
%FOPEndFontReencode
%%EndProlog
%%Page: 1 1
%%PageBoundingBox: 0 0 420 315
%%BeginPageSetup
[1 0 0 -1 0 315] CT
%%EndPageSetup
GS
[0.6 0 0 0.6 0 0] CT
1 GC
N
0 0 700 525 re
f
GR
GS
[0.6 0 0 0.6 0 0] CT
1 GC
N
0 0 700 525 re
f
GR
GS
[0.6 0 0 0.6 0 0] CT
1 GC
N
91 152 M
325 152 L
325 51 L
91 51 L
cp
f
GR
GS
[0.6 0 0 0.6 0 0] CT
0.149 GC
2 setlinecap
1 LJ
0.833 LW
N
91 152 M
325 152 L
S
GR
GS
[0.6 0 0 0.6 0 0] CT
0.149 GC
2 setlinecap
1 LJ
0.833 LW
N
91 51 M
325 51 L
S
GR
GS
[0.6 0 0 0.6 0 0] CT
0.149 GC
2 setlinecap
1 LJ
0.833 LW
N
91 152 M
91 149.66 L
S
GR
GS
[0.6 0 0 0.6 0 0] CT
0.149 GC
2 setlinecap
1 LJ
0.833 LW
N
208 152 M
208 149.66 L
S
GR
GS
[0.6 0 0 0.6 0 0] CT
0.149 GC
2 setlinecap
1 LJ
0.833 LW
N
325 152 M
325 149.66 L
S
GR
GS
[0.6 0 0 0.6 0 0] CT
0.149 GC
2 setlinecap
1 LJ
0.833 LW
N
91 51 M
91 53.34 L
S
GR
GS
[0.6 0 0 0.6 0 0] CT
0.149 GC
2 setlinecap
1 LJ
0.833 LW
N
208 51 M
208 53.34 L
S
GR
GS
[0.6 0 0 0.6 0 0] CT
0.149 GC
2 setlinecap
1 LJ
0.833 LW
N
325 51 M
325 53.34 L
S
GR
GS
[0.6 0 0 0.6 54.6 95.2] CT
0.149 GC
/Helvetica 16.667 F
GS
[1 0 0 1 0 0] CT
-5 18 moveto 
1 -1 scale
(0) t 
GR
GR
GS
[0.6 0 0 0.6 124.8 95.2] CT
0.149 GC
/Helvetica 16.667 F
GS
[1 0 0 1 0 0] CT
-12 18 moveto 
1 -1 scale
(0.5) t 
GR
GR
GS
[0.6 0 0 0.6 195 95.2] CT
0.149 GC
/Helvetica 16.667 F
GS
[1 0 0 1 0 0] CT
-5 18 moveto 
1 -1 scale
(1) t 
GR
GR
GS
[0.6 0 0 0.6 0 0] CT
0.149 GC
2 setlinecap
1 LJ
0.833 LW
N
91 152 M
91 51 L
S
GR
GS
[0.6 0 0 0.6 0 0] CT
0.149 GC
2 setlinecap
1 LJ
0.833 LW
N
325 152 M
325 51 L
S
GR
GS
[0.6 0 0 0.6 0 0] CT
0.149 GC
2 setlinecap
1 LJ
0.833 LW
N
91 152 M
93.34 152 L
S
GR
GS
[0.6 0 0 0.6 0 0] CT
0.149 GC
2 setlinecap
1 LJ
0.833 LW
N
91 101.5 M
93.34 101.5 L
S
GR
GS
[0.6 0 0 0.6 0 0] CT
0.149 GC
2 setlinecap
1 LJ
0.833 LW
N
91 51 M
93.34 51 L
S
GR
GS
[0.6 0 0 0.6 0 0] CT
0.149 GC
2 setlinecap
1 LJ
0.833 LW
N
325 152 M
322.66 152 L
S
GR
GS
[0.6 0 0 0.6 0 0] CT
0.149 GC
2 setlinecap
1 LJ
0.833 LW
N
325 101.5 M
322.66 101.5 L
S
GR
GS
[0.6 0 0 0.6 0 0] CT
0.149 GC
2 setlinecap
1 LJ
0.833 LW
N
325 51 M
322.66 51 L
S
GR
GS
[0.6 0 0 0.6 50.6 91.2] CT
0.149 GC
/Helvetica 16.667 F
GS
[1 0 0 1 0 0] CT
-10 7 moveto 
1 -1 scale
(0) t 
GR
GR
GS
[0.6 0 0 0.6 50.6 60.9] CT
0.149 GC
/Helvetica 16.667 F
GS
[1 0 0 1 0 0] CT
-24 7 moveto 
1 -1 scale
(0.5) t 
GR
GR
GS
[0.6 0 0 0.6 50.6 30.6] CT
0.149 GC
/Helvetica 16.667 F
GS
[1 0 0 1 0 0] CT
-10 7 moveto 
1 -1 scale
(1) t 
GR
GR
GS
[0.6 0 0 0.6 124.80012 28.95] CT
/Helvetica-Bold 18.333 F
GS
[1 0 0 1 0 0] CT
-21.5 -4 moveto 
1 -1 scale
(tf = 0) t 
GR
GR
GS
[0.6 0 0 0.6 0 0] CT
0 0.447 0.741 RC
1 LJ
0.833 LW
N
91 152 M
93.34 145.658 L
95.68 139.341 L
98.02 133.074 L
100.36 126.882 L
102.7 120.789 L
105.04 114.819 L
107.38 108.996 L
109.72 103.343 L
112.06 97.881 L
114.4 92.634 L
116.74 87.62 L
119.08 82.861 L
121.42 78.374 L
123.76 74.178 L
126.1 70.289 L
128.44 66.723 L
130.78 63.493 L
133.12 60.612 L
135.46 58.093 L
137.8 55.943 L
140.14 54.173 L
142.48 52.789 L
144.82 51.796 L
147.16 51.199 L
149.5 51 L
151.84 51.199 L
154.18 51.796 L
156.52 52.789 L
158.86 54.173 L
161.2 55.943 L
163.54 58.093 L
165.88 60.612 L
168.22 63.493 L
170.56 66.723 L
172.9 70.289 L
175.24 74.178 L
177.58 78.374 L
179.92 82.861 L
182.26 87.62 L
184.6 92.634 L
186.94 97.881 L
189.28 103.343 L
191.62 108.996 L
193.96 114.819 L
196.3 120.789 L
198.64 126.882 L
200.98 133.074 L
203.32 139.341 L
205.66 145.658 L
208 152 L
210.34 145.658 L
212.68 139.341 L
215.02 133.074 L
217.36 126.882 L
219.7 120.789 L
222.04 114.819 L
224.38 108.996 L
226.72 103.343 L
229.06 97.881 L
231.4 92.634 L
233.74 87.62 L
236.08 82.861 L
238.42 78.374 L
240.76 74.178 L
243.1 70.289 L
245.44 66.723 L
247.78 63.493 L
250.12 60.612 L
252.46 58.093 L
254.8 55.943 L
257.14 54.173 L
259.48 52.789 L
261.82 51.796 L
264.16 51.199 L
266.5 51 L
268.84 51.199 L
271.18 51.796 L
273.52 52.789 L
275.86 54.173 L
278.2 55.943 L
280.54 58.093 L
282.88 60.612 L
285.22 63.493 L
287.56 66.723 L
289.9 70.289 L
292.24 74.178 L
294.58 78.374 L
296.92 82.861 L
299.26 87.62 L
301.6 92.634 L
303.94 97.881 L
306.28 103.343 L
308.62 108.996 L
310.96 114.819 L
313.3 120.789 L
315.64 126.882 L
317.98 133.074 L
320.32 139.341 L
322.66 145.658 L
325 152 L
S
GR
GS
[0.6 0 0 0.6 0 0] CT
1 GC
N
399 152 M
634 152 L
634 51 L
399 51 L
cp
f
GR
GS
[0.6 0 0 0.6 0 0] CT
0.149 GC
2 setlinecap
1 LJ
0.833 LW
N
399 152 M
634 152 L
S
GR
GS
[0.6 0 0 0.6 0 0] CT
0.149 GC
2 setlinecap
1 LJ
0.833 LW
N
399 51 M
634 51 L
S
GR
GS
[0.6 0 0 0.6 0 0] CT
0.149 GC
2 setlinecap
1 LJ
0.833 LW
N
399 152 M
399 149.65 L
S
GR
GS
[0.6 0 0 0.6 0 0] CT
0.149 GC
2 setlinecap
1 LJ
0.833 LW
N
516.5 152 M
516.5 149.65 L
S
GR
GS
[0.6 0 0 0.6 0 0] CT
0.149 GC
2 setlinecap
1 LJ
0.833 LW
N
634 152 M
634 149.65 L
S
GR
GS
[0.6 0 0 0.6 0 0] CT
0.149 GC
2 setlinecap
1 LJ
0.833 LW
N
399 51 M
399 53.35 L
S
GR
GS
[0.6 0 0 0.6 0 0] CT
0.149 GC
2 setlinecap
1 LJ
0.833 LW
N
516.5 51 M
516.5 53.35 L
S
GR
GS
[0.6 0 0 0.6 0 0] CT
0.149 GC
2 setlinecap
1 LJ
0.833 LW
N
634 51 M
634 53.35 L
S
GR
GS
[0.6 0 0 0.6 239.4 95.2] CT
0.149 GC
/Helvetica 16.667 F
GS
[1 0 0 1 0 0] CT
-5 18 moveto 
1 -1 scale
(0) t 
GR
GR
GS
[0.6 0 0 0.6 309.9 95.2] CT
0.149 GC
/Helvetica 16.667 F
GS
[1 0 0 1 0 0] CT
-12 18 moveto 
1 -1 scale
(0.5) t 
GR
GR
GS
[0.6 0 0 0.6 380.4 95.2] CT
0.149 GC
/Helvetica 16.667 F
GS
[1 0 0 1 0 0] CT
-5 18 moveto 
1 -1 scale
(1) t 
GR
GR
GS
[0.6 0 0 0.6 0 0] CT
0.149 GC
2 setlinecap
1 LJ
0.833 LW
N
399 152 M
399 51 L
S
GR
GS
[0.6 0 0 0.6 0 0] CT
0.149 GC
2 setlinecap
1 LJ
0.833 LW
N
634 152 M
634 51 L
S
GR
GS
[0.6 0 0 0.6 0 0] CT
0.149 GC
2 setlinecap
1 LJ
0.833 LW
N
399 152 M
401.35 152 L
S
GR
GS
[0.6 0 0 0.6 0 0] CT
0.149 GC
2 setlinecap
1 LJ
0.833 LW
N
399 101.5 M
401.35 101.5 L
S
GR
GS
[0.6 0 0 0.6 0 0] CT
0.149 GC
2 setlinecap
1 LJ
0.833 LW
N
399 51 M
401.35 51 L
S
GR
GS
[0.6 0 0 0.6 0 0] CT
0.149 GC
2 setlinecap
1 LJ
0.833 LW
N
634 152 M
631.65 152 L
S
GR
GS
[0.6 0 0 0.6 0 0] CT
0.149 GC
2 setlinecap
1 LJ
0.833 LW
N
634 101.5 M
631.65 101.5 L
S
GR
GS
[0.6 0 0 0.6 0 0] CT
0.149 GC
2 setlinecap
1 LJ
0.833 LW
N
634 51 M
631.65 51 L
S
GR
GS
[0.6 0 0 0.6 235.40001 91.2] CT
0.149 GC
/Helvetica 16.667 F
GS
[1 0 0 1 0 0] CT
-10 7 moveto 
1 -1 scale
(0) t 
GR
GR
GS
[0.6 0 0 0.6 235.40001 60.9] CT
0.149 GC
/Helvetica 16.667 F
GS
[1 0 0 1 0 0] CT
-24 7 moveto 
1 -1 scale
(0.5) t 
GR
GR
GS
[0.6 0 0 0.6 235.40001 30.6] CT
0.149 GC
/Helvetica 16.667 F
GS
[1 0 0 1 0 0] CT
-10 7 moveto 
1 -1 scale
(1) t 
GR
GR
GS
[0.6 0 0 0.6 309.90029 28.95] CT
/Helvetica-Bold 18.333 F
GS
[1 0 0 1 0 0] CT
-29 -4 moveto 
1 -1 scale
(tf = 0.2) t 
GR
GR
GS
[0.6 0 0 0.6 0 0] CT
0 0.447 0.741 RC
1 LJ
0.833 LW
N
399 152 M
401.35 149.215 L
403.7 146.432 L
406.05 143.651 L
408.4 140.874 L
410.75 138.102 L
413.1 135.336 L
415.45 132.577 L
417.8 129.827 L
420.15 127.087 L
422.5 124.358 L
424.85 121.641 L
427.2 118.938 L
429.55 116.25 L
431.9 113.578 L
434.25 110.924 L
436.6 108.29 L
438.95 105.677 L
441.3 103.087 L
443.65 100.523 L
446 97.986 L
448.35 95.478 L
450.7 93.002 L
453.05 90.56 L
455.4 88.157 L
457.75 85.794 L
460.1 83.475 L
462.45 81.204 L
464.8 78.986 L
467.15 76.826 L
469.5 74.729 L
471.85 72.701 L
474.2 70.75 L
476.55 68.885 L
478.9 67.115 L
481.25 65.452 L
483.6 63.911 L
485.95 62.509 L
488.3 61.269 L
490.65 60.217 L
493 59.389 L
495.35 58.836 L
497.7 58.622 L
500.05 58.839 L
502.4 59.618 L
504.75 61.138 L
507.1 63.644 L
509.45 67.439 L
511.8 72.842 L
514.15 80.058 L
516.5 88.947 L
518.85 98.806 L
521.2 108.394 L
523.55 116.412 L
525.9 122.105 L
528.25 125.448 L
530.6 126.871 L
532.95 126.907 L
535.3 126.008 L
537.65 124.497 L
540 122.59 L
542.35 120.429 L
544.7 118.104 L
547.05 115.675 L
549.4 113.181 L
551.75 110.651 L
554.1 108.102 L
556.45 105.548 L
558.8 102.999 L
561.15 100.463 L
563.5 97.945 L
565.85 95.45 L
568.2 92.983 L
570.55 90.548 L
572.9 88.148 L
575.25 85.788 L
577.6 83.471 L
579.95 81.202 L
582.3 78.985 L
584.65 76.825 L
587 74.728 L
589.35 72.701 L
591.7 70.75 L
594.05 68.885 L
596.4 67.115 L
598.75 65.452 L
601.1 63.911 L
603.45 62.51 L
605.8 61.269 L
608.15 60.218 L
610.5 59.394 L
612.85 58.848 L
615.2 58.657 L
617.55 58.937 L
619.9 59.891 L
622.25 61.889 L
624.6 65.673 L
626.95 72.787 L
629.3 86.369 L
631.65 111.673 L
634 152 L
S
GR
GS
[0.6 0 0 0.6 0 0] CT
1 GC
N
91 310 M
325 310 L
325 209 L
91 209 L
cp
f
GR
GS
[0.6 0 0 0.6 0 0] CT
0.149 GC
2 setlinecap
1 LJ
0.833 LW
N
91 310 M
325 310 L
S
GR
GS
[0.6 0 0 0.6 0 0] CT
0.149 GC
2 setlinecap
1 LJ
0.833 LW
N
91 209 M
325 209 L
S
GR
GS
[0.6 0 0 0.6 0 0] CT
0.149 GC
2 setlinecap
1 LJ
0.833 LW
N
91 310 M
91 307.66 L
S
GR
GS
[0.6 0 0 0.6 0 0] CT
0.149 GC
2 setlinecap
1 LJ
0.833 LW
N
208 310 M
208 307.66 L
S
GR
GS
[0.6 0 0 0.6 0 0] CT
0.149 GC
2 setlinecap
1 LJ
0.833 LW
N
325 310 M
325 307.66 L
S
GR
GS
[0.6 0 0 0.6 0 0] CT
0.149 GC
2 setlinecap
1 LJ
0.833 LW
N
91 209 M
91 211.34 L
S
GR
GS
[0.6 0 0 0.6 0 0] CT
0.149 GC
2 setlinecap
1 LJ
0.833 LW
N
208 209 M
208 211.34 L
S
GR
GS
[0.6 0 0 0.6 0 0] CT
0.149 GC
2 setlinecap
1 LJ
0.833 LW
N
325 209 M
325 211.34 L
S
GR
GS
[0.6 0 0 0.6 54.6 189.99999] CT
0.149 GC
/Helvetica 16.667 F
GS
[1 0 0 1 0 0] CT
-5 18 moveto 
1 -1 scale
(0) t 
GR
GR
GS
[0.6 0 0 0.6 124.8 189.99999] CT
0.149 GC
/Helvetica 16.667 F
GS
[1 0 0 1 0 0] CT
-12 18 moveto 
1 -1 scale
(0.5) t 
GR
GR
GS
[0.6 0 0 0.6 195 189.99999] CT
0.149 GC
/Helvetica 16.667 F
GS
[1 0 0 1 0 0] CT
-5 18 moveto 
1 -1 scale
(1) t 
GR
GR
GS
[0.6 0 0 0.6 0 0] CT
0.149 GC
2 setlinecap
1 LJ
0.833 LW
N
91 310 M
91 209 L
S
GR
GS
[0.6 0 0 0.6 0 0] CT
0.149 GC
2 setlinecap
1 LJ
0.833 LW
N
325 310 M
325 209 L
S
GR
GS
[0.6 0 0 0.6 0 0] CT
0.149 GC
2 setlinecap
1 LJ
0.833 LW
N
91 310 M
93.34 310 L
S
GR
GS
[0.6 0 0 0.6 0 0] CT
0.149 GC
2 setlinecap
1 LJ
0.833 LW
N
91 259.5 M
93.34 259.5 L
S
GR
GS
[0.6 0 0 0.6 0 0] CT
0.149 GC
2 setlinecap
1 LJ
0.833 LW
N
91 209 M
93.34 209 L
S
GR
GS
[0.6 0 0 0.6 0 0] CT
0.149 GC
2 setlinecap
1 LJ
0.833 LW
N
325 310 M
322.66 310 L
S
GR
GS
[0.6 0 0 0.6 0 0] CT
0.149 GC
2 setlinecap
1 LJ
0.833 LW
N
325 259.5 M
322.66 259.5 L
S
GR
GS
[0.6 0 0 0.6 0 0] CT
0.149 GC
2 setlinecap
1 LJ
0.833 LW
N
325 209 M
322.66 209 L
S
GR
GS
[0.6 0 0 0.6 50.6 186] CT
0.149 GC
/Helvetica 16.667 F
GS
[1 0 0 1 0 0] CT
-10 7 moveto 
1 -1 scale
(0) t 
GR
GR
GS
[0.6 0 0 0.6 50.6 155.7] CT
0.149 GC
/Helvetica 16.667 F
GS
[1 0 0 1 0 0] CT
-24 7 moveto 
1 -1 scale
(0.5) t 
GR
GR
GS
[0.6 0 0 0.6 50.6 125.4] CT
0.149 GC
/Helvetica 16.667 F
GS
[1 0 0 1 0 0] CT
-10 7 moveto 
1 -1 scale
(1) t 
GR
GR
GS
[0.6 0 0 0.6 124.80012 123.75] CT
/Helvetica-Bold 18.333 F
GS
[1 0 0 1 0 0] CT
-29 -4 moveto 
1 -1 scale
(tf = 0.4) t 
GR
GR
GS
[0.6 0 0 0.6 0 0] CT
0 0.447 0.741 RC
1 LJ
0.833 LW
N
91 310 M
93.34 308.209 L
95.68 306.418 L
98.02 304.628 L
100.36 302.838 L
102.7 301.049 L
105.04 299.262 L
107.38 297.475 L
109.72 295.691 L
112.06 293.908 L
114.4 292.128 L
116.74 290.349 L
119.08 288.574 L
121.42 286.801 L
123.76 285.031 L
126.1 283.264 L
128.44 281.501 L
130.78 279.741 L
133.12 277.986 L
135.46 276.235 L
137.8 274.489 L
140.14 272.748 L
142.48 271.012 L
144.82 269.281 L
147.16 267.557 L
149.5 265.839 L
151.84 264.129 L
154.18 262.425 L
156.52 260.729 L
158.86 259.042 L
161.2 257.363 L
163.54 255.694 L
165.88 254.035 L
168.22 252.387 L
170.56 250.75 L
172.9 249.126 L
175.24 247.516 L
177.58 245.92 L
179.92 244.34 L
182.26 242.777 L
184.6 241.234 L
186.94 239.711 L
189.28 238.211 L
191.62 236.738 L
193.96 235.294 L
196.3 233.885 L
198.64 232.515 L
200.98 231.195 L
203.32 229.933 L
205.66 228.747 L
208 227.659 L
210.34 226.7 L
212.68 225.917 L
215.02 225.377 L
217.36 225.176 L
219.7 225.443 L
222.04 226.352 L
224.38 228.113 L
226.72 230.948 L
229.06 235.027 L
231.4 240.361 L
233.74 246.684 L
236.08 253.413 L
238.42 259.779 L
240.76 265.103 L
243.1 269.019 L
245.44 271.514 L
247.78 272.798 L
250.12 273.157 L
252.46 272.855 L
254.8 272.098 L
257.14 271.035 L
259.48 269.769 L
261.82 268.367 L
264.16 266.877 L
266.5 265.328 L
268.84 263.74 L
271.18 262.127 L
273.52 260.5 L
275.86 258.864 L
278.2 257.225 L
280.54 255.586 L
282.88 253.95 L
285.22 252.32 L
287.56 250.698 L
289.9 249.085 L
292.24 247.484 L
294.58 245.895 L
296.92 244.321 L
299.26 242.765 L
301.6 241.229 L
303.94 239.721 L
306.28 238.255 L
308.62 236.867 L
310.96 235.645 L
313.3 234.816 L
315.64 234.972 L
317.98 237.61 L
320.32 246.319 L
322.66 268.241 L
325 310 L
S
GR
GS
[0.6 0 0 0.6 0 0] CT
1 GC
N
399 310 M
634 310 L
634 209 L
399 209 L
cp
f
GR
GS
[0.6 0 0 0.6 0 0] CT
0.149 GC
2 setlinecap
1 LJ
0.833 LW
N
399 310 M
634 310 L
S
GR
GS
[0.6 0 0 0.6 0 0] CT
0.149 GC
2 setlinecap
1 LJ
0.833 LW
N
399 209 M
634 209 L
S
GR
GS
[0.6 0 0 0.6 0 0] CT
0.149 GC
2 setlinecap
1 LJ
0.833 LW
N
399 310 M
399 307.65 L
S
GR
GS
[0.6 0 0 0.6 0 0] CT
0.149 GC
2 setlinecap
1 LJ
0.833 LW
N
516.5 310 M
516.5 307.65 L
S
GR
GS
[0.6 0 0 0.6 0 0] CT
0.149 GC
2 setlinecap
1 LJ
0.833 LW
N
634 310 M
634 307.65 L
S
GR
GS
[0.6 0 0 0.6 0 0] CT
0.149 GC
2 setlinecap
1 LJ
0.833 LW
N
399 209 M
399 211.35 L
S
GR
GS
[0.6 0 0 0.6 0 0] CT
0.149 GC
2 setlinecap
1 LJ
0.833 LW
N
516.5 209 M
516.5 211.35 L
S
GR
GS
[0.6 0 0 0.6 0 0] CT
0.149 GC
2 setlinecap
1 LJ
0.833 LW
N
634 209 M
634 211.35 L
S
GR
GS
[0.6 0 0 0.6 239.4 189.99999] CT
0.149 GC
/Helvetica 16.667 F
GS
[1 0 0 1 0 0] CT
-5 18 moveto 
1 -1 scale
(0) t 
GR
GR
GS
[0.6 0 0 0.6 309.9 189.99999] CT
0.149 GC
/Helvetica 16.667 F
GS
[1 0 0 1 0 0] CT
-12 18 moveto 
1 -1 scale
(0.5) t 
GR
GR
GS
[0.6 0 0 0.6 380.4 189.99999] CT
0.149 GC
/Helvetica 16.667 F
GS
[1 0 0 1 0 0] CT
-5 18 moveto 
1 -1 scale
(1) t 
GR
GR
GS
[0.6 0 0 0.6 0 0] CT
0.149 GC
2 setlinecap
1 LJ
0.833 LW
N
399 310 M
399 209 L
S
GR
GS
[0.6 0 0 0.6 0 0] CT
0.149 GC
2 setlinecap
1 LJ
0.833 LW
N
634 310 M
634 209 L
S
GR
GS
[0.6 0 0 0.6 0 0] CT
0.149 GC
2 setlinecap
1 LJ
0.833 LW
N
399 310 M
401.35 310 L
S
GR
GS
[0.6 0 0 0.6 0 0] CT
0.149 GC
2 setlinecap
1 LJ
0.833 LW
N
399 259.5 M
401.35 259.5 L
S
GR
GS
[0.6 0 0 0.6 0 0] CT
0.149 GC
2 setlinecap
1 LJ
0.833 LW
N
399 209 M
401.35 209 L
S
GR
GS
[0.6 0 0 0.6 0 0] CT
0.149 GC
2 setlinecap
1 LJ
0.833 LW
N
634 310 M
631.65 310 L
S
GR
GS
[0.6 0 0 0.6 0 0] CT
0.149 GC
2 setlinecap
1 LJ
0.833 LW
N
634 259.5 M
631.65 259.5 L
S
GR
GS
[0.6 0 0 0.6 0 0] CT
0.149 GC
2 setlinecap
1 LJ
0.833 LW
N
634 209 M
631.65 209 L
S
GR
GS
[0.6 0 0 0.6 235.40001 186] CT
0.149 GC
/Helvetica 16.667 F
GS
[1 0 0 1 0 0] CT
-10 7 moveto 
1 -1 scale
(0) t 
GR
GR
GS
[0.6 0 0 0.6 235.40001 155.7] CT
0.149 GC
/Helvetica 16.667 F
GS
[1 0 0 1 0 0] CT
-24 7 moveto 
1 -1 scale
(0.5) t 
GR
GR
GS
[0.6 0 0 0.6 235.40001 125.4] CT
0.149 GC
/Helvetica 16.667 F
GS
[1 0 0 1 0 0] CT
-10 7 moveto 
1 -1 scale
(1) t 
GR
GR
GS
[0.6 0 0 0.6 309.90029 123.75] CT
/Helvetica-Bold 18.333 F
GS
[1 0 0 1 0 0] CT
-29 -4 moveto 
1 -1 scale
(tf = 0.6) t 
GR
GR
GS
[0.6 0 0 0.6 0 0] CT
0 0.447 0.741 RC
1 LJ
0.833 LW
N
399 310 M
401.35 308.679 L
403.7 307.358 L
406.05 306.037 L
408.4 304.716 L
410.75 303.396 L
413.1 302.076 L
415.45 300.756 L
417.8 299.437 L
420.15 298.119 L
422.5 296.801 L
424.85 295.484 L
427.2 294.168 L
429.55 292.852 L
431.9 291.538 L
434.25 290.224 L
436.6 288.912 L
438.95 287.6 L
441.3 286.29 L
443.65 284.982 L
446 283.674 L
448.35 282.369 L
450.7 281.064 L
453.05 279.762 L
455.4 278.461 L
457.75 277.162 L
460.1 275.865 L
462.45 274.57 L
464.8 273.277 L
467.15 271.986 L
469.5 270.698 L
471.85 269.412 L
474.2 268.129 L
476.55 266.849 L
478.9 265.572 L
481.25 264.297 L
483.6 263.027 L
485.95 261.759 L
488.3 260.495 L
490.65 259.235 L
493 257.98 L
495.35 256.728 L
497.7 255.481 L
500.05 254.239 L
502.4 253.002 L
504.75 251.771 L
507.1 250.546 L
509.45 249.328 L
511.8 248.117 L
514.15 246.914 L
516.5 245.719 L
518.85 244.535 L
521.2 243.361 L
523.55 242.201 L
525.9 241.057 L
528.25 239.931 L
530.6 238.827 L
532.95 237.753 L
535.3 236.714 L
537.65 235.723 L
540 234.793 L
542.35 233.945 L
544.7 233.205 L
547.05 232.61 L
549.4 232.21 L
551.75 232.065 L
554.1 232.253 L
556.45 232.868 L
558.8 234.006 L
561.15 235.76 L
563.5 238.187 L
565.85 241.28 L
568.2 244.932 L
570.55 248.923 L
572.9 252.95 L
575.25 256.69 L
577.6 259.878 L
579.95 262.362 L
582.3 264.111 L
584.65 265.179 L
587 265.674 L
589.35 265.71 L
591.7 265.397 L
594.05 264.823 L
596.4 264.061 L
598.75 263.163 L
601.1 262.167 L
603.45 261.104 L
605.8 259.993 L
608.15 258.852 L
610.5 257.696 L
612.85 256.542 L
615.2 255.421 L
617.55 254.392 L
619.9 253.581 L
622.25 253.27 L
624.6 254.08 L
626.95 257.331 L
629.3 265.573 L
631.65 282.612 L
634 310 L
S
GR
GS
[0.6 0 0 0.6 0 0] CT
1 GC
N
91 467 M
325 467 L
325 366 L
91 366 L
cp
f
GR
GS
[0.6 0 0 0.6 0 0] CT
0.149 GC
2 setlinecap
1 LJ
0.833 LW
N
91 467 M
325 467 L
S
GR
GS
[0.6 0 0 0.6 0 0] CT
0.149 GC
2 setlinecap
1 LJ
0.833 LW
N
91 366 M
325 366 L
S
GR
GS
[0.6 0 0 0.6 0 0] CT
0.149 GC
2 setlinecap
1 LJ
0.833 LW
N
91 467 M
91 464.66 L
S
GR
GS
[0.6 0 0 0.6 0 0] CT
0.149 GC
2 setlinecap
1 LJ
0.833 LW
N
208 467 M
208 464.66 L
S
GR
GS
[0.6 0 0 0.6 0 0] CT
0.149 GC
2 setlinecap
1 LJ
0.833 LW
N
325 467 M
325 464.66 L
S
GR
GS
[0.6 0 0 0.6 0 0] CT
0.149 GC
2 setlinecap
1 LJ
0.833 LW
N
91 366 M
91 368.34 L
S
GR
GS
[0.6 0 0 0.6 0 0] CT
0.149 GC
2 setlinecap
1 LJ
0.833 LW
N
208 366 M
208 368.34 L
S
GR
GS
[0.6 0 0 0.6 0 0] CT
0.149 GC
2 setlinecap
1 LJ
0.833 LW
N
325 366 M
325 368.34 L
S
GR
GS
[0.6 0 0 0.6 54.6 284.19999] CT
0.149 GC
/Helvetica 16.667 F
GS
[1 0 0 1 0 0] CT
-5 18 moveto 
1 -1 scale
(0) t 
GR
GR
GS
[0.6 0 0 0.6 124.8 284.19999] CT
0.149 GC
/Helvetica 16.667 F
GS
[1 0 0 1 0 0] CT
-12 18 moveto 
1 -1 scale
(0.5) t 
GR
GR
GS
[0.6 0 0 0.6 195 284.19999] CT
0.149 GC
/Helvetica 16.667 F
GS
[1 0 0 1 0 0] CT
-5 18 moveto 
1 -1 scale
(1) t 
GR
GR
GS
[0.6 0 0 0.6 0 0] CT
0.149 GC
2 setlinecap
1 LJ
0.833 LW
N
91 467 M
91 366 L
S
GR
GS
[0.6 0 0 0.6 0 0] CT
0.149 GC
2 setlinecap
1 LJ
0.833 LW
N
325 467 M
325 366 L
S
GR
GS
[0.6 0 0 0.6 0 0] CT
0.149 GC
2 setlinecap
1 LJ
0.833 LW
N
91 467 M
93.34 467 L
S
GR
GS
[0.6 0 0 0.6 0 0] CT
0.149 GC
2 setlinecap
1 LJ
0.833 LW
N
91 416.5 M
93.34 416.5 L
S
GR
GS
[0.6 0 0 0.6 0 0] CT
0.149 GC
2 setlinecap
1 LJ
0.833 LW
N
91 366 M
93.34 366 L
S
GR
GS
[0.6 0 0 0.6 0 0] CT
0.149 GC
2 setlinecap
1 LJ
0.833 LW
N
325 467 M
322.66 467 L
S
GR
GS
[0.6 0 0 0.6 0 0] CT
0.149 GC
2 setlinecap
1 LJ
0.833 LW
N
325 416.5 M
322.66 416.5 L
S
GR
GS
[0.6 0 0 0.6 0 0] CT
0.149 GC
2 setlinecap
1 LJ
0.833 LW
N
325 366 M
322.66 366 L
S
GR
GS
[0.6 0 0 0.6 50.6 280.2] CT
0.149 GC
/Helvetica 16.667 F
GS
[1 0 0 1 0 0] CT
-10 7 moveto 
1 -1 scale
(0) t 
GR
GR
GS
[0.6 0 0 0.6 50.6 249.9] CT
0.149 GC
/Helvetica 16.667 F
GS
[1 0 0 1 0 0] CT
-24 7 moveto 
1 -1 scale
(0.5) t 
GR
GR
GS
[0.6 0 0 0.6 50.6 219.6] CT
0.149 GC
/Helvetica 16.667 F
GS
[1 0 0 1 0 0] CT
-10 7 moveto 
1 -1 scale
(1) t 
GR
GR
GS
[0.6 0 0 0.6 124.80012 217.95] CT
/Helvetica-Bold 18.333 F
GS
[1 0 0 1 0 0] CT
-29 -4 moveto 
1 -1 scale
(tf = 0.8) t 
GR
GR
GS
[0.6 0 0 0.6 0 0] CT
0 0.447 0.741 RC
1 LJ
0.833 LW
N
91 467 M
93.34 465.953 L
95.68 464.907 L
98.02 463.86 L
100.36 462.813 L
102.7 461.767 L
105.04 460.721 L
107.38 459.674 L
109.72 458.628 L
112.06 457.583 L
114.4 456.537 L
116.74 455.492 L
119.08 454.447 L
121.42 453.403 L
123.76 452.359 L
126.1 451.315 L
128.44 450.272 L
130.78 449.229 L
133.12 448.187 L
135.46 447.145 L
137.8 446.104 L
140.14 445.064 L
142.48 444.024 L
144.82 442.984 L
147.16 441.946 L
149.5 440.908 L
151.84 439.871 L
154.18 438.834 L
156.52 437.799 L
158.86 436.764 L
161.2 435.731 L
163.54 434.698 L
165.88 433.666 L
168.22 432.635 L
170.56 431.606 L
172.9 430.577 L
175.24 429.55 L
177.58 428.524 L
179.92 427.499 L
182.26 426.475 L
184.6 425.453 L
186.94 424.433 L
189.28 423.414 L
191.62 422.396 L
193.96 421.38 L
196.3 420.366 L
198.64 419.354 L
200.98 418.344 L
203.32 417.336 L
205.66 416.33 L
208 415.326 L
210.34 414.325 L
212.68 413.327 L
215.02 412.331 L
217.36 411.338 L
219.7 410.349 L
222.04 409.363 L
224.38 408.381 L
226.72 407.404 L
229.06 406.431 L
231.4 405.464 L
233.74 404.504 L
236.08 403.551 L
238.42 402.608 L
240.76 401.675 L
243.1 400.757 L
245.44 399.855 L
247.78 398.974 L
250.12 398.119 L
252.46 397.298 L
254.8 396.521 L
257.14 395.798 L
259.48 395.146 L
261.82 394.585 L
264.16 394.139 L
266.5 393.839 L
268.84 393.722 L
271.18 393.829 L
273.52 394.207 L
275.86 394.901 L
278.2 395.952 L
280.54 397.383 L
282.88 399.191 L
285.22 401.339 L
287.56 403.743 L
289.9 406.282 L
292.24 408.812 L
294.58 411.187 L
296.92 413.285 L
299.26 415.026 L
301.6 416.383 L
303.94 417.377 L
306.28 418.075 L
308.62 418.6 L
310.96 419.156 L
313.3 420.096 L
315.64 422.045 L
317.98 426.102 L
320.32 433.995 L
322.66 447.657 L
325 467 L
S
GR
GS
[0.6 0 0 0.6 0 0] CT
1 GC
N
399 467 M
634 467 L
634 366 L
399 366 L
cp
f
GR
GS
[0.6 0 0 0.6 0 0] CT
0.149 GC
2 setlinecap
1 LJ
0.833 LW
N
399 467 M
634 467 L
S
GR
GS
[0.6 0 0 0.6 0 0] CT
0.149 GC
2 setlinecap
1 LJ
0.833 LW
N
399 366 M
634 366 L
S
GR
GS
[0.6 0 0 0.6 0 0] CT
0.149 GC
2 setlinecap
1 LJ
0.833 LW
N
399 467 M
399 464.65 L
S
GR
GS
[0.6 0 0 0.6 0 0] CT
0.149 GC
2 setlinecap
1 LJ
0.833 LW
N
516.5 467 M
516.5 464.65 L
S
GR
GS
[0.6 0 0 0.6 0 0] CT
0.149 GC
2 setlinecap
1 LJ
0.833 LW
N
634 467 M
634 464.65 L
S
GR
GS
[0.6 0 0 0.6 0 0] CT
0.149 GC
2 setlinecap
1 LJ
0.833 LW
N
399 366 M
399 368.35 L
S
GR
GS
[0.6 0 0 0.6 0 0] CT
0.149 GC
2 setlinecap
1 LJ
0.833 LW
N
516.5 366 M
516.5 368.35 L
S
GR
GS
[0.6 0 0 0.6 0 0] CT
0.149 GC
2 setlinecap
1 LJ
0.833 LW
N
634 366 M
634 368.35 L
S
GR
GS
[0.6 0 0 0.6 239.4 284.19999] CT
0.149 GC
/Helvetica 16.667 F
GS
[1 0 0 1 0 0] CT
-5 18 moveto 
1 -1 scale
(0) t 
GR
GR
GS
[0.6 0 0 0.6 309.9 284.19999] CT
0.149 GC
/Helvetica 16.667 F
GS
[1 0 0 1 0 0] CT
-12 18 moveto 
1 -1 scale
(0.5) t 
GR
GR
GS
[0.6 0 0 0.6 380.4 284.19999] CT
0.149 GC
/Helvetica 16.667 F
GS
[1 0 0 1 0 0] CT
-5 18 moveto 
1 -1 scale
(1) t 
GR
GR
GS
[0.6 0 0 0.6 0 0] CT
0.149 GC
2 setlinecap
1 LJ
0.833 LW
N
399 467 M
399 366 L
S
GR
GS
[0.6 0 0 0.6 0 0] CT
0.149 GC
2 setlinecap
1 LJ
0.833 LW
N
634 467 M
634 366 L
S
GR
GS
[0.6 0 0 0.6 0 0] CT
0.149 GC
2 setlinecap
1 LJ
0.833 LW
N
399 467 M
401.35 467 L
S
GR
GS
[0.6 0 0 0.6 0 0] CT
0.149 GC
2 setlinecap
1 LJ
0.833 LW
N
399 416.5 M
401.35 416.5 L
S
GR
GS
[0.6 0 0 0.6 0 0] CT
0.149 GC
2 setlinecap
1 LJ
0.833 LW
N
399 366 M
401.35 366 L
S
GR
GS
[0.6 0 0 0.6 0 0] CT
0.149 GC
2 setlinecap
1 LJ
0.833 LW
N
634 467 M
631.65 467 L
S
GR
GS
[0.6 0 0 0.6 0 0] CT
0.149 GC
2 setlinecap
1 LJ
0.833 LW
N
634 416.5 M
631.65 416.5 L
S
GR
GS
[0.6 0 0 0.6 0 0] CT
0.149 GC
2 setlinecap
1 LJ
0.833 LW
N
634 366 M
631.65 366 L
S
GR
GS
[0.6 0 0 0.6 235.40001 280.2] CT
0.149 GC
/Helvetica 16.667 F
GS
[1 0 0 1 0 0] CT
-10 7 moveto 
1 -1 scale
(0) t 
GR
GR
GS
[0.6 0 0 0.6 235.40001 249.9] CT
0.149 GC
/Helvetica 16.667 F
GS
[1 0 0 1 0 0] CT
-24 7 moveto 
1 -1 scale
(0.5) t 
GR
GR
GS
[0.6 0 0 0.6 235.40001 219.6] CT
0.149 GC
/Helvetica 16.667 F
GS
[1 0 0 1 0 0] CT
-10 7 moveto 
1 -1 scale
(1) t 
GR
GR
GS
[0.6 0 0 0.6 309.90029 217.95] CT
/Helvetica-Bold 18.333 F
GS
[1 0 0 1 0 0] CT
-21.5 -4 moveto 
1 -1 scale
(tf = 1) t 
GR
GR
GS
[0.6 0 0 0.6 0 0] CT
0 0.447 0.741 RC
1 LJ
0.833 LW
N
399 467 M
401.35 466.133 L
403.7 465.266 L
406.05 464.4 L
408.4 463.533 L
410.75 462.666 L
413.1 461.799 L
415.45 460.933 L
417.8 460.066 L
420.15 459.2 L
422.5 458.334 L
424.85 457.468 L
427.2 456.602 L
429.55 455.736 L
431.9 454.871 L
434.25 454.005 L
436.6 453.14 L
438.95 452.275 L
441.3 451.411 L
443.65 450.546 L
446 449.682 L
448.35 448.818 L
450.7 447.955 L
453.05 447.091 L
455.4 446.228 L
457.75 445.366 L
460.1 444.503 L
462.45 443.642 L
464.8 442.78 L
467.15 441.919 L
469.5 441.058 L
471.85 440.198 L
474.2 439.338 L
476.55 438.479 L
478.9 437.62 L
481.25 436.762 L
483.6 435.904 L
485.95 435.047 L
488.3 434.19 L
490.65 433.334 L
493 432.479 L
495.35 431.624 L
497.7 430.77 L
500.05 429.917 L
502.4 429.064 L
504.75 428.212 L
507.1 427.361 L
509.45 426.511 L
511.8 425.661 L
514.15 424.813 L
516.5 423.965 L
518.85 423.118 L
521.2 422.272 L
523.55 421.428 L
525.9 420.584 L
528.25 419.742 L
530.6 418.9 L
532.95 418.06 L
535.3 417.222 L
537.65 416.384 L
540 415.549 L
542.35 414.714 L
544.7 413.882 L
547.05 413.052 L
549.4 412.223 L
551.75 411.398 L
554.1 410.574 L
556.45 409.754 L
558.8 408.937 L
561.15 408.123 L
563.5 407.315 L
565.85 406.511 L
568.2 405.714 L
570.55 404.924 L
572.9 404.143 L
575.25 403.373 L
577.6 402.616 L
579.95 401.876 L
582.3 401.156 L
584.65 400.461 L
587 399.797 L
589.35 399.172 L
591.7 398.595 L
594.05 398.077 L
596.4 397.632 L
598.75 397.277 L
601.1 397.03 L
603.45 396.913 L
605.8 396.952 L
608.15 397.174 L
610.5 397.609 L
612.85 398.294 L
615.2 399.274 L
617.55 400.621 L
619.9 402.472 L
622.25 405.099 L
624.6 409.061 L
626.95 415.442 L
629.3 426.08 L
631.65 443.22 L
634 467 L
S
GR
%%Trailer
%%Pages: 1
%%EOF
