%!PS-Adobe-3.0 EPSF-3.0
%%Creator: (MATLAB, The Mathworks, Inc. Version 9.1.0.441655 \(R2016b\). Operating System: Windows 8)
%%Title: C:/Users/simon/Documents/Unief/M1/Numerieke_simulatie_van_differentiaal_vergelijkingen/PDE/Homework_1/git/verslag/comparison_performance_thomas.eps
%%CreationDate: 2016-11-08T11:04:00
%%Pages: (atend)
%%BoundingBox: 0 0 1152 562
%%LanguageLevel: 3
%%EndComments
%%BeginProlog
%%BeginResource: procset (Apache XML Graphics Std ProcSet) 1.2 0
%%Version: 1.2 0
%%Copyright: (Copyright 2001-2003,2010 The Apache Software Foundation. License terms: http://www.apache.org/licenses/LICENSE-2.0)
/bd{bind def}bind def
/ld{load def}bd
/GR/grestore ld
/M/moveto ld
/LJ/setlinejoin ld
/C/curveto ld
/f/fill ld
/LW/setlinewidth ld
/GC/setgray ld
/t/show ld
/N/newpath ld
/CT/concat ld
/cp/closepath ld
/S/stroke ld
/L/lineto ld
/CC/setcmykcolor ld
/A/ashow ld
/GS/gsave ld
/RC/setrgbcolor ld
/RM/rmoveto ld
/ML/setmiterlimit ld
/re {4 2 roll M
1 index 0 rlineto
0 exch rlineto
neg 0 rlineto
cp } bd
/_ctm matrix def
/_tm matrix def
/BT { _ctm currentmatrix pop matrix _tm copy pop 0 0 moveto } bd
/ET { _ctm setmatrix } bd
/iTm { _ctm setmatrix _tm concat } bd
/Tm { _tm astore pop iTm 0 0 moveto } bd
/ux 0.0 def
/uy 0.0 def
/F {
  /Tp exch def
  /Tf exch def
  Tf findfont Tp scalefont setfont
  /cf Tf def  /cs Tp def
} bd
/ULS {currentpoint /uy exch def /ux exch def} bd
/ULE {
  /Tcx currentpoint pop def
  gsave
  newpath
  cf findfont cs scalefont dup
  /FontMatrix get 0 get /Ts exch def /FontInfo get dup
  /UnderlinePosition get Ts mul /To exch def
  /UnderlineThickness get Ts mul /Tt exch def
  ux uy To add moveto  Tcx uy To add lineto
  Tt setlinewidth stroke
  grestore
} bd
/OLE {
  /Tcx currentpoint pop def
  gsave
  newpath
  cf findfont cs scalefont dup
  /FontMatrix get 0 get /Ts exch def /FontInfo get dup
  /UnderlinePosition get Ts mul /To exch def
  /UnderlineThickness get Ts mul /Tt exch def
  ux uy To add cs add moveto Tcx uy To add cs add lineto
  Tt setlinewidth stroke
  grestore
} bd
/SOE {
  /Tcx currentpoint pop def
  gsave
  newpath
  cf findfont cs scalefont dup
  /FontMatrix get 0 get /Ts exch def /FontInfo get dup
  /UnderlinePosition get Ts mul /To exch def
  /UnderlineThickness get Ts mul /Tt exch def
  ux uy To add cs 10 mul 26 idiv add moveto Tcx uy To add cs 10 mul 26 idiv add lineto
  Tt setlinewidth stroke
  grestore
} bd
/QT {
/Y22 exch store
/X22 exch store
/Y21 exch store
/X21 exch store
currentpoint
/Y21 load 2 mul add 3 div exch
/X21 load 2 mul add 3 div exch
/X21 load 2 mul /X22 load add 3 div
/Y21 load 2 mul /Y22 load add 3 div
/X22 load /Y22 load curveto
} bd
/SSPD {
dup length /d exch dict def
{
/v exch def
/k exch def
currentpagedevice k known {
/cpdv currentpagedevice k get def
v cpdv ne {
/upd false def
/nullv v type /nulltype eq def
/nullcpdv cpdv type /nulltype eq def
nullv nullcpdv or
{
/upd true def
} {
/sametype v type cpdv type eq def
sametype {
v type /arraytype eq {
/vlen v length def
/cpdvlen cpdv length def
vlen cpdvlen eq {
0 1 vlen 1 sub {
/i exch def
/obj v i get def
/cpdobj cpdv i get def
obj cpdobj ne {
/upd true def
exit
} if
} for
} {
/upd true def
} ifelse
} {
v type /dicttype eq {
v {
/dv exch def
/dk exch def
/cpddv cpdv dk get def
dv cpddv ne {
/upd true def
exit
} if
} forall
} {
/upd true def
} ifelse
} ifelse
} if
} ifelse
upd true eq {
d k v put
} if
} if
} if
} forall
d length 0 gt {
d setpagedevice
} if
} bd
/RE { % /NewFontName [NewEncodingArray] /FontName RE -
  findfont dup length dict begin
  {
    1 index /FID ne
    {def} {pop pop} ifelse
  } forall
  /Encoding exch def
  /FontName 1 index def
  currentdict definefont pop
  end
} bind def
%%EndResource
%%BeginResource: procset (Apache XML Graphics EPS ProcSet) 1.0 0
%%Version: 1.0 0
%%Copyright: (Copyright 2002-2003 The Apache Software Foundation. License terms: http://www.apache.org/licenses/LICENSE-2.0)
/BeginEPSF { %def
/b4_Inc_state save def         % Save state for cleanup
/dict_count countdictstack def % Count objects on dict stack
/op_count count 1 sub def      % Count objects on operand stack
userdict begin                 % Push userdict on dict stack
/showpage { } def              % Redefine showpage, { } = null proc
0 setgray 0 setlinecap         % Prepare graphics state
1 setlinewidth 0 setlinejoin
10 setmiterlimit [ ] 0 setdash newpath
/languagelevel where           % If level not equal to 1 then
{pop languagelevel             % set strokeadjust and
1 ne                           % overprint to their defaults.
{false setstrokeadjust false setoverprint
} if
} if
} bd
/EndEPSF { %def
count op_count sub {pop} repeat            % Clean up stacks
countdictstack dict_count sub {end} repeat
b4_Inc_state restore
} bd
%%EndResource
%FOPBeginFontDict
%%IncludeResource: font Courier-Bold
%%IncludeResource: font Helvetica
%%IncludeResource: font Courier-BoldOblique
%%IncludeResource: font Courier-Oblique
%%IncludeResource: font Times-Roman
%%IncludeResource: font Helvetica-BoldOblique
%%IncludeResource: font Helvetica-Bold
%%IncludeResource: font Helvetica-Oblique
%%IncludeResource: font Times-BoldItalic
%%IncludeResource: font Courier
%%IncludeResource: font Times-Italic
%%IncludeResource: font Times-Bold
%%IncludeResource: font Symbol
%%IncludeResource: font ZapfDingbats
%FOPEndFontDict
%%BeginResource: encoding WinAnsiEncoding
/WinAnsiEncoding [
/.notdef /.notdef /.notdef /.notdef /.notdef
/.notdef /.notdef /.notdef /.notdef /.notdef
/.notdef /.notdef /.notdef /.notdef /.notdef
/.notdef /.notdef /.notdef /.notdef /.notdef
/.notdef /.notdef /.notdef /.notdef /.notdef
/.notdef /.notdef /.notdef /.notdef /.notdef
/.notdef /.notdef /space /exclam /quotedbl
/numbersign /dollar /percent /ampersand /quotesingle
/parenleft /parenright /asterisk /plus /comma
/hyphen /period /slash /zero /one
/two /three /four /five /six
/seven /eight /nine /colon /semicolon
/less /equal /greater /question /at
/A /B /C /D /E
/F /G /H /I /J
/K /L /M /N /O
/P /Q /R /S /T
/U /V /W /X /Y
/Z /bracketleft /backslash /bracketright /asciicircum
/underscore /quoteleft /a /b /c
/d /e /f /g /h
/i /j /k /l /m
/n /o /p /q /r
/s /t /u /v /w
/x /y /z /braceleft /bar
/braceright /asciitilde /bullet /Euro /bullet
/quotesinglbase /florin /quotedblbase /ellipsis /dagger
/daggerdbl /circumflex /perthousand /Scaron /guilsinglleft
/OE /bullet /Zcaron /bullet /bullet
/quoteleft /quoteright /quotedblleft /quotedblright /bullet
/endash /emdash /asciitilde /trademark /scaron
/guilsinglright /oe /bullet /zcaron /Ydieresis
/space /exclamdown /cent /sterling /currency
/yen /brokenbar /section /dieresis /copyright
/ordfeminine /guillemotleft /logicalnot /sfthyphen /registered
/macron /degree /plusminus /twosuperior /threesuperior
/acute /mu /paragraph /middot /cedilla
/onesuperior /ordmasculine /guillemotright /onequarter /onehalf
/threequarters /questiondown /Agrave /Aacute /Acircumflex
/Atilde /Adieresis /Aring /AE /Ccedilla
/Egrave /Eacute /Ecircumflex /Edieresis /Igrave
/Iacute /Icircumflex /Idieresis /Eth /Ntilde
/Ograve /Oacute /Ocircumflex /Otilde /Odieresis
/multiply /Oslash /Ugrave /Uacute /Ucircumflex
/Udieresis /Yacute /Thorn /germandbls /agrave
/aacute /acircumflex /atilde /adieresis /aring
/ae /ccedilla /egrave /eacute /ecircumflex
/edieresis /igrave /iacute /icircumflex /idieresis
/eth /ntilde /ograve /oacute /ocircumflex
/otilde /odieresis /divide /oslash /ugrave
/uacute /ucircumflex /udieresis /yacute /thorn
/ydieresis
] def
%%EndResource
%FOPBeginFontReencode
/Courier-Bold findfont
dup length dict begin
  {1 index /FID ne {def} {pop pop} ifelse} forall
  /Encoding WinAnsiEncoding def
  currentdict
end
/Courier-Bold exch definefont pop
/Helvetica findfont
dup length dict begin
  {1 index /FID ne {def} {pop pop} ifelse} forall
  /Encoding WinAnsiEncoding def
  currentdict
end
/Helvetica exch definefont pop
/Courier-BoldOblique findfont
dup length dict begin
  {1 index /FID ne {def} {pop pop} ifelse} forall
  /Encoding WinAnsiEncoding def
  currentdict
end
/Courier-BoldOblique exch definefont pop
/Courier-Oblique findfont
dup length dict begin
  {1 index /FID ne {def} {pop pop} ifelse} forall
  /Encoding WinAnsiEncoding def
  currentdict
end
/Courier-Oblique exch definefont pop
/Times-Roman findfont
dup length dict begin
  {1 index /FID ne {def} {pop pop} ifelse} forall
  /Encoding WinAnsiEncoding def
  currentdict
end
/Times-Roman exch definefont pop
/Helvetica-BoldOblique findfont
dup length dict begin
  {1 index /FID ne {def} {pop pop} ifelse} forall
  /Encoding WinAnsiEncoding def
  currentdict
end
/Helvetica-BoldOblique exch definefont pop
/Helvetica-Bold findfont
dup length dict begin
  {1 index /FID ne {def} {pop pop} ifelse} forall
  /Encoding WinAnsiEncoding def
  currentdict
end
/Helvetica-Bold exch definefont pop
/Helvetica-Oblique findfont
dup length dict begin
  {1 index /FID ne {def} {pop pop} ifelse} forall
  /Encoding WinAnsiEncoding def
  currentdict
end
/Helvetica-Oblique exch definefont pop
/Times-BoldItalic findfont
dup length dict begin
  {1 index /FID ne {def} {pop pop} ifelse} forall
  /Encoding WinAnsiEncoding def
  currentdict
end
/Times-BoldItalic exch definefont pop
/Courier findfont
dup length dict begin
  {1 index /FID ne {def} {pop pop} ifelse} forall
  /Encoding WinAnsiEncoding def
  currentdict
end
/Courier exch definefont pop
/Times-Italic findfont
dup length dict begin
  {1 index /FID ne {def} {pop pop} ifelse} forall
  /Encoding WinAnsiEncoding def
  currentdict
end
/Times-Italic exch definefont pop
/Times-Bold findfont
dup length dict begin
  {1 index /FID ne {def} {pop pop} ifelse} forall
  /Encoding WinAnsiEncoding def
  currentdict
end
/Times-Bold exch definefont pop
%FOPEndFontReencode
%%EndProlog
%%Page: 1 1
%%PageBoundingBox: 0 0 1152 562
%%BeginPageSetup
[1 0 0 -1 0 562] CT
%%EndPageSetup
GS
[0.6 0 0 0.6 0 0.39996] CT
1 GC
N
0 0 1920 936 re
f
GR
GS
[0.6 0 0 0.6 0 0.39996] CT
1 GC
N
0 0 1920 936 re
f
GR
GS
[0.6 0 0 0.6 0 0.39996] CT
1 GC
N
250 833 M
1738 833 L
1738 70 L
250 70 L
cp
f
GR
GS
[0.6 0 0 0.6 0 0.39996] CT
0.149 GC
2 setlinecap
1 LJ
0.833 LW
N
250 833 M
1738 833 L
S
GR
GS
[0.6 0 0 0.6 0 0.39996] CT
0.149 GC
2 setlinecap
1 LJ
0.833 LW
N
250 70 M
1738 70 L
S
GR
GS
[0.6 0 0 0.6 0 0.39996] CT
0.149 GC
2 setlinecap
1 LJ
0.833 LW
N
250 833 M
250 818.12 L
S
GR
GS
[0.6 0 0 0.6 0 0.39996] CT
0.149 GC
2 setlinecap
1 LJ
0.833 LW
N
994 833 M
994 818.12 L
S
GR
GS
[0.6 0 0 0.6 0 0.39996] CT
0.149 GC
2 setlinecap
1 LJ
0.833 LW
N
1738 833 M
1738 818.12 L
S
GR
GS
[0.6 0 0 0.6 0 0.39996] CT
0.149 GC
2 setlinecap
1 LJ
0.833 LW
N
250 70 M
250 84.88 L
S
GR
GS
[0.6 0 0 0.6 0 0.39996] CT
0.149 GC
2 setlinecap
1 LJ
0.833 LW
N
994 70 M
994 84.88 L
S
GR
GS
[0.6 0 0 0.6 0 0.39996] CT
0.149 GC
2 setlinecap
1 LJ
0.833 LW
N
1738 70 M
1738 84.88 L
S
GR
GS
[0.6 0 0 0.6 0 0.39996] CT
0.149 GC
2 setlinecap
1 LJ
0.833 LW
N
250 833 M
250 825.56 L
S
GR
GS
[0.6 0 0 0.6 0 0.39996] CT
0.149 GC
2 setlinecap
1 LJ
0.833 LW
N
473.966 833 M
473.966 825.56 L
S
GR
GS
[0.6 0 0 0.6 0 0.39996] CT
0.149 GC
2 setlinecap
1 LJ
0.833 LW
N
604.978 833 M
604.978 825.56 L
S
GR
GS
[0.6 0 0 0.6 0 0.39996] CT
0.149 GC
2 setlinecap
1 LJ
0.833 LW
N
697.933 833 M
697.933 825.56 L
S
GR
GS
[0.6 0 0 0.6 0 0.39996] CT
0.149 GC
2 setlinecap
1 LJ
0.833 LW
N
770.034 833 M
770.034 825.56 L
S
GR
GS
[0.6 0 0 0.6 0 0.39996] CT
0.149 GC
2 setlinecap
1 LJ
0.833 LW
N
828.945 833 M
828.945 825.56 L
S
GR
GS
[0.6 0 0 0.6 0 0.39996] CT
0.149 GC
2 setlinecap
1 LJ
0.833 LW
N
878.753 833 M
878.753 825.56 L
S
GR
GS
[0.6 0 0 0.6 0 0.39996] CT
0.149 GC
2 setlinecap
1 LJ
0.833 LW
N
921.899 833 M
921.899 825.56 L
S
GR
GS
[0.6 0 0 0.6 0 0.39996] CT
0.149 GC
2 setlinecap
1 LJ
0.833 LW
N
959.956 833 M
959.956 825.56 L
S
GR
GS
[0.6 0 0 0.6 0 0.39996] CT
0.149 GC
2 setlinecap
1 LJ
0.833 LW
N
994 833 M
994 825.56 L
S
GR
GS
[0.6 0 0 0.6 0 0.39996] CT
0.149 GC
2 setlinecap
1 LJ
0.833 LW
N
1217.966 833 M
1217.966 825.56 L
S
GR
GS
[0.6 0 0 0.6 0 0.39996] CT
0.149 GC
2 setlinecap
1 LJ
0.833 LW
N
1348.978 833 M
1348.978 825.56 L
S
GR
GS
[0.6 0 0 0.6 0 0.39996] CT
0.149 GC
2 setlinecap
1 LJ
0.833 LW
N
1441.933 833 M
1441.933 825.56 L
S
GR
GS
[0.6 0 0 0.6 0 0.39996] CT
0.149 GC
2 setlinecap
1 LJ
0.833 LW
N
1514.034 833 M
1514.034 825.56 L
S
GR
GS
[0.6 0 0 0.6 0 0.39996] CT
0.149 GC
2 setlinecap
1 LJ
0.833 LW
N
1572.945 833 M
1572.945 825.56 L
S
GR
GS
[0.6 0 0 0.6 0 0.39996] CT
0.149 GC
2 setlinecap
1 LJ
0.833 LW
N
1622.753 833 M
1622.753 825.56 L
S
GR
GS
[0.6 0 0 0.6 0 0.39996] CT
0.149 GC
2 setlinecap
1 LJ
0.833 LW
N
1665.899 833 M
1665.899 825.56 L
S
GR
GS
[0.6 0 0 0.6 0 0.39996] CT
0.149 GC
2 setlinecap
1 LJ
0.833 LW
N
1703.956 833 M
1703.956 825.56 L
S
GR
GS
[0.6 0 0 0.6 0 0.39996] CT
0.149 GC
2 setlinecap
1 LJ
0.833 LW
N
1738 833 M
1738 825.56 L
S
GR
GS
[0.6 0 0 0.6 0 0.39996] CT
0.149 GC
2 setlinecap
1 LJ
0.833 LW
N
250 70 M
250 77.44 L
S
GR
GS
[0.6 0 0 0.6 0 0.39996] CT
0.149 GC
2 setlinecap
1 LJ
0.833 LW
N
473.966 70 M
473.966 77.44 L
S
GR
GS
[0.6 0 0 0.6 0 0.39996] CT
0.149 GC
2 setlinecap
1 LJ
0.833 LW
N
604.978 70 M
604.978 77.44 L
S
GR
GS
[0.6 0 0 0.6 0 0.39996] CT
0.149 GC
2 setlinecap
1 LJ
0.833 LW
N
697.933 70 M
697.933 77.44 L
S
GR
GS
[0.6 0 0 0.6 0 0.39996] CT
0.149 GC
2 setlinecap
1 LJ
0.833 LW
N
770.034 70 M
770.034 77.44 L
S
GR
GS
[0.6 0 0 0.6 0 0.39996] CT
0.149 GC
2 setlinecap
1 LJ
0.833 LW
N
828.945 70 M
828.945 77.44 L
S
GR
GS
[0.6 0 0 0.6 0 0.39996] CT
0.149 GC
2 setlinecap
1 LJ
0.833 LW
N
878.753 70 M
878.753 77.44 L
S
GR
GS
[0.6 0 0 0.6 0 0.39996] CT
0.149 GC
2 setlinecap
1 LJ
0.833 LW
N
921.899 70 M
921.899 77.44 L
S
GR
GS
[0.6 0 0 0.6 0 0.39996] CT
0.149 GC
2 setlinecap
1 LJ
0.833 LW
N
959.956 70 M
959.956 77.44 L
S
GR
GS
[0.6 0 0 0.6 0 0.39996] CT
0.149 GC
2 setlinecap
1 LJ
0.833 LW
N
994 70 M
994 77.44 L
S
GR
GS
[0.6 0 0 0.6 0 0.39996] CT
0.149 GC
2 setlinecap
1 LJ
0.833 LW
N
1217.966 70 M
1217.966 77.44 L
S
GR
GS
[0.6 0 0 0.6 0 0.39996] CT
0.149 GC
2 setlinecap
1 LJ
0.833 LW
N
1348.978 70 M
1348.978 77.44 L
S
GR
GS
[0.6 0 0 0.6 0 0.39996] CT
0.149 GC
2 setlinecap
1 LJ
0.833 LW
N
1441.933 70 M
1441.933 77.44 L
S
GR
GS
[0.6 0 0 0.6 0 0.39996] CT
0.149 GC
2 setlinecap
1 LJ
0.833 LW
N
1514.034 70 M
1514.034 77.44 L
S
GR
GS
[0.6 0 0 0.6 0 0.39996] CT
0.149 GC
2 setlinecap
1 LJ
0.833 LW
N
1572.945 70 M
1572.945 77.44 L
S
GR
GS
[0.6 0 0 0.6 0 0.39996] CT
0.149 GC
2 setlinecap
1 LJ
0.833 LW
N
1622.753 70 M
1622.753 77.44 L
S
GR
GS
[0.6 0 0 0.6 0 0.39996] CT
0.149 GC
2 setlinecap
1 LJ
0.833 LW
N
1665.899 70 M
1665.899 77.44 L
S
GR
GS
[0.6 0 0 0.6 0 0.39996] CT
0.149 GC
2 setlinecap
1 LJ
0.833 LW
N
1703.956 70 M
1703.956 77.44 L
S
GR
GS
[0.6 0 0 0.6 0 0.39996] CT
0.149 GC
2 setlinecap
1 LJ
0.833 LW
N
1738 70 M
1738 77.44 L
S
GR
GS
[0.6 0 0 0.6 141.6 517.6] CT
0.149 GC
/Helvetica 16.667 F
GS
[1 0 0 1 0 0] CT
0 0 moveto 
1 -1 scale
(10) t 
GR
GR
GS
[0.6 0 0 0.6 153 512.8] CT
0.149 GC
/Helvetica 13.333 F
GS
[1 0 0 1 0 0] CT
0 0 moveto 
1 -1 scale
(2) t 
GR
GR
GS
[0.6 0 0 0.6 588 517.6] CT
0.149 GC
/Helvetica 16.667 F
GS
[1 0 0 1 0 0] CT
0 0 moveto 
1 -1 scale
(10) t 
GR
GR
GS
[0.6 0 0 0.6 599.4 512.8] CT
0.149 GC
/Helvetica 13.333 F
GS
[1 0 0 1 0 0] CT
0 0 moveto 
1 -1 scale
(3) t 
GR
GR
GS
[0.6 0 0 0.6 1034.4 517.6] CT
0.149 GC
/Helvetica 16.667 F
GS
[1 0 0 1 0 0] CT
0 0 moveto 
1 -1 scale
(10) t 
GR
GR
GS
[0.6 0 0 0.6 1045.8 512.8] CT
0.149 GC
/Helvetica 13.333 F
GS
[1 0 0 1 0 0] CT
0 0 moveto 
1 -1 scale
(4) t 
GR
GR
GS
[0.6 0 0 0.6 596.40044 520.79999] CT
0.149 GC
/Helvetica 18.333 F
GS
[1 0 0 1 0 0] CT
-4.5 19 moveto 
1 -1 scale
(J) t 
GR
GR
GS
[0.6 0 0 0.6 0 0.39996] CT
0.149 GC
2 setlinecap
1 LJ
0.833 LW
N
250 833 M
250 70 L
S
GR
GS
[0.6 0 0 0.6 0 0.39996] CT
0.149 GC
2 setlinecap
1 LJ
0.833 LW
N
1738 833 M
1738 70 L
S
GR
GS
[0.6 0 0 0.6 0 0.39996] CT
0.149 GC
2 setlinecap
1 LJ
0.833 LW
N
250 833 M
264.88 833 L
S
GR
GS
[0.6 0 0 0.6 0 0.39996] CT
0.149 GC
2 setlinecap
1 LJ
0.833 LW
N
250 705.833 M
264.88 705.833 L
S
GR
GS
[0.6 0 0 0.6 0 0.39996] CT
0.149 GC
2 setlinecap
1 LJ
0.833 LW
N
250 578.667 M
264.88 578.667 L
S
GR
GS
[0.6 0 0 0.6 0 0.39996] CT
0.149 GC
2 setlinecap
1 LJ
0.833 LW
N
250 451.5 M
264.88 451.5 L
S
GR
GS
[0.6 0 0 0.6 0 0.39996] CT
0.149 GC
2 setlinecap
1 LJ
0.833 LW
N
250 324.333 M
264.88 324.333 L
S
GR
GS
[0.6 0 0 0.6 0 0.39996] CT
0.149 GC
2 setlinecap
1 LJ
0.833 LW
N
250 197.167 M
264.88 197.167 L
S
GR
GS
[0.6 0 0 0.6 0 0.39996] CT
0.149 GC
2 setlinecap
1 LJ
0.833 LW
N
250 70 M
264.88 70 L
S
GR
GS
[0.6 0 0 0.6 0 0.39996] CT
0.149 GC
2 setlinecap
1 LJ
0.833 LW
N
1738 833 M
1723.12 833 L
S
GR
GS
[0.6 0 0 0.6 0 0.39996] CT
0.149 GC
2 setlinecap
1 LJ
0.833 LW
N
1738 705.833 M
1723.12 705.833 L
S
GR
GS
[0.6 0 0 0.6 0 0.39996] CT
0.149 GC
2 setlinecap
1 LJ
0.833 LW
N
1738 578.667 M
1723.12 578.667 L
S
GR
GS
[0.6 0 0 0.6 0 0.39996] CT
0.149 GC
2 setlinecap
1 LJ
0.833 LW
N
1738 451.5 M
1723.12 451.5 L
S
GR
GS
[0.6 0 0 0.6 0 0.39996] CT
0.149 GC
2 setlinecap
1 LJ
0.833 LW
N
1738 324.333 M
1723.12 324.333 L
S
GR
GS
[0.6 0 0 0.6 0 0.39996] CT
0.149 GC
2 setlinecap
1 LJ
0.833 LW
N
1738 197.167 M
1723.12 197.167 L
S
GR
GS
[0.6 0 0 0.6 0 0.39996] CT
0.149 GC
2 setlinecap
1 LJ
0.833 LW
N
1738 70 M
1723.12 70 L
S
GR
GS
[0.6 0 0 0.6 0 0.39996] CT
0.149 GC
2 setlinecap
1 LJ
0.833 LW
N
250 833 M
257.44 833 L
S
GR
GS
[0.6 0 0 0.6 0 0.39996] CT
0.149 GC
2 setlinecap
1 LJ
0.833 LW
N
250 794.719 M
257.44 794.719 L
S
GR
GS
[0.6 0 0 0.6 0 0.39996] CT
0.149 GC
2 setlinecap
1 LJ
0.833 LW
N
250 772.326 M
257.44 772.326 L
S
GR
GS
[0.6 0 0 0.6 0 0.39996] CT
0.149 GC
2 setlinecap
1 LJ
0.833 LW
N
250 756.438 M
257.44 756.438 L
S
GR
GS
[0.6 0 0 0.6 0 0.39996] CT
0.149 GC
2 setlinecap
1 LJ
0.833 LW
N
250 744.114 M
257.44 744.114 L
S
GR
GS
[0.6 0 0 0.6 0 0.39996] CT
0.149 GC
2 setlinecap
1 LJ
0.833 LW
N
250 734.045 M
257.44 734.045 L
S
GR
GS
[0.6 0 0 0.6 0 0.39996] CT
0.149 GC
2 setlinecap
1 LJ
0.833 LW
N
250 725.532 M
257.44 725.532 L
S
GR
GS
[0.6 0 0 0.6 0 0.39996] CT
0.149 GC
2 setlinecap
1 LJ
0.833 LW
N
250 718.157 M
257.44 718.157 L
S
GR
GS
[0.6 0 0 0.6 0 0.39996] CT
0.149 GC
2 setlinecap
1 LJ
0.833 LW
N
250 711.652 M
257.44 711.652 L
S
GR
GS
[0.6 0 0 0.6 0 0.39996] CT
0.149 GC
2 setlinecap
1 LJ
0.833 LW
N
250 705.833 M
257.44 705.833 L
S
GR
GS
[0.6 0 0 0.6 0 0.39996] CT
0.149 GC
2 setlinecap
1 LJ
0.833 LW
N
250 705.833 M
257.44 705.833 L
S
GR
GS
[0.6 0 0 0.6 0 0.39996] CT
0.149 GC
2 setlinecap
1 LJ
0.833 LW
N
250 667.552 M
257.44 667.552 L
S
GR
GS
[0.6 0 0 0.6 0 0.39996] CT
0.149 GC
2 setlinecap
1 LJ
0.833 LW
N
250 645.159 M
257.44 645.159 L
S
GR
GS
[0.6 0 0 0.6 0 0.39996] CT
0.149 GC
2 setlinecap
1 LJ
0.833 LW
N
250 629.271 M
257.44 629.271 L
S
GR
GS
[0.6 0 0 0.6 0 0.39996] CT
0.149 GC
2 setlinecap
1 LJ
0.833 LW
N
250 616.948 M
257.44 616.948 L
S
GR
GS
[0.6 0 0 0.6 0 0.39996] CT
0.149 GC
2 setlinecap
1 LJ
0.833 LW
N
250 606.878 M
257.44 606.878 L
S
GR
GS
[0.6 0 0 0.6 0 0.39996] CT
0.149 GC
2 setlinecap
1 LJ
0.833 LW
N
250 598.365 M
257.44 598.365 L
S
GR
GS
[0.6 0 0 0.6 0 0.39996] CT
0.149 GC
2 setlinecap
1 LJ
0.833 LW
N
250 590.99 M
257.44 590.99 L
S
GR
GS
[0.6 0 0 0.6 0 0.39996] CT
0.149 GC
2 setlinecap
1 LJ
0.833 LW
N
250 584.485 M
257.44 584.485 L
S
GR
GS
[0.6 0 0 0.6 0 0.39996] CT
0.149 GC
2 setlinecap
1 LJ
0.833 LW
N
250 578.667 M
257.44 578.667 L
S
GR
GS
[0.6 0 0 0.6 0 0.39996] CT
0.149 GC
2 setlinecap
1 LJ
0.833 LW
N
250 540.386 M
257.44 540.386 L
S
GR
GS
[0.6 0 0 0.6 0 0.39996] CT
0.149 GC
2 setlinecap
1 LJ
0.833 LW
N
250 517.993 M
257.44 517.993 L
S
GR
GS
[0.6 0 0 0.6 0 0.39996] CT
0.149 GC
2 setlinecap
1 LJ
0.833 LW
N
250 502.105 M
257.44 502.105 L
S
GR
GS
[0.6 0 0 0.6 0 0.39996] CT
0.149 GC
2 setlinecap
1 LJ
0.833 LW
N
250 489.781 M
257.44 489.781 L
S
GR
GS
[0.6 0 0 0.6 0 0.39996] CT
0.149 GC
2 setlinecap
1 LJ
0.833 LW
N
250 479.712 M
257.44 479.712 L
S
GR
GS
[0.6 0 0 0.6 0 0.39996] CT
0.149 GC
2 setlinecap
1 LJ
0.833 LW
N
250 471.198 M
257.44 471.198 L
S
GR
GS
[0.6 0 0 0.6 0 0.39996] CT
0.149 GC
2 setlinecap
1 LJ
0.833 LW
N
250 463.824 M
257.44 463.824 L
S
GR
GS
[0.6 0 0 0.6 0 0.39996] CT
0.149 GC
2 setlinecap
1 LJ
0.833 LW
N
250 457.319 M
257.44 457.319 L
S
GR
GS
[0.6 0 0 0.6 0 0.39996] CT
0.149 GC
2 setlinecap
1 LJ
0.833 LW
N
250 451.5 M
257.44 451.5 L
S
GR
GS
[0.6 0 0 0.6 0 0.39996] CT
0.149 GC
2 setlinecap
1 LJ
0.833 LW
N
250 413.219 M
257.44 413.219 L
S
GR
GS
[0.6 0 0 0.6 0 0.39996] CT
0.149 GC
2 setlinecap
1 LJ
0.833 LW
N
250 390.826 M
257.44 390.826 L
S
GR
GS
[0.6 0 0 0.6 0 0.39996] CT
0.149 GC
2 setlinecap
1 LJ
0.833 LW
N
250 374.938 M
257.44 374.938 L
S
GR
GS
[0.6 0 0 0.6 0 0.39996] CT
0.149 GC
2 setlinecap
1 LJ
0.833 LW
N
250 362.614 M
257.44 362.614 L
S
GR
GS
[0.6 0 0 0.6 0 0.39996] CT
0.149 GC
2 setlinecap
1 LJ
0.833 LW
N
250 352.545 M
257.44 352.545 L
S
GR
GS
[0.6 0 0 0.6 0 0.39996] CT
0.149 GC
2 setlinecap
1 LJ
0.833 LW
N
250 344.032 M
257.44 344.032 L
S
GR
GS
[0.6 0 0 0.6 0 0.39996] CT
0.149 GC
2 setlinecap
1 LJ
0.833 LW
N
250 336.657 M
257.44 336.657 L
S
GR
GS
[0.6 0 0 0.6 0 0.39996] CT
0.149 GC
2 setlinecap
1 LJ
0.833 LW
N
250 330.152 M
257.44 330.152 L
S
GR
GS
[0.6 0 0 0.6 0 0.39996] CT
0.149 GC
2 setlinecap
1 LJ
0.833 LW
N
250 324.333 M
257.44 324.333 L
S
GR
GS
[0.6 0 0 0.6 0 0.39996] CT
0.149 GC
2 setlinecap
1 LJ
0.833 LW
N
250 286.052 M
257.44 286.052 L
S
GR
GS
[0.6 0 0 0.6 0 0.39996] CT
0.149 GC
2 setlinecap
1 LJ
0.833 LW
N
250 263.659 M
257.44 263.659 L
S
GR
GS
[0.6 0 0 0.6 0 0.39996] CT
0.149 GC
2 setlinecap
1 LJ
0.833 LW
N
250 247.771 M
257.44 247.771 L
S
GR
GS
[0.6 0 0 0.6 0 0.39996] CT
0.149 GC
2 setlinecap
1 LJ
0.833 LW
N
250 235.448 M
257.44 235.448 L
S
GR
GS
[0.6 0 0 0.6 0 0.39996] CT
0.149 GC
2 setlinecap
1 LJ
0.833 LW
N
250 225.378 M
257.44 225.378 L
S
GR
GS
[0.6 0 0 0.6 0 0.39996] CT
0.149 GC
2 setlinecap
1 LJ
0.833 LW
N
250 216.865 M
257.44 216.865 L
S
GR
GS
[0.6 0 0 0.6 0 0.39996] CT
0.149 GC
2 setlinecap
1 LJ
0.833 LW
N
250 209.49 M
257.44 209.49 L
S
GR
GS
[0.6 0 0 0.6 0 0.39996] CT
0.149 GC
2 setlinecap
1 LJ
0.833 LW
N
250 202.986 M
257.44 202.986 L
S
GR
GS
[0.6 0 0 0.6 0 0.39996] CT
0.149 GC
2 setlinecap
1 LJ
0.833 LW
N
250 197.167 M
257.44 197.167 L
S
GR
GS
[0.6 0 0 0.6 0 0.39996] CT
0.149 GC
2 setlinecap
1 LJ
0.833 LW
N
250 158.886 M
257.44 158.886 L
S
GR
GS
[0.6 0 0 0.6 0 0.39996] CT
0.149 GC
2 setlinecap
1 LJ
0.833 LW
N
250 136.493 M
257.44 136.493 L
S
GR
GS
[0.6 0 0 0.6 0 0.39996] CT
0.149 GC
2 setlinecap
1 LJ
0.833 LW
N
250 120.605 M
257.44 120.605 L
S
GR
GS
[0.6 0 0 0.6 0 0.39996] CT
0.149 GC
2 setlinecap
1 LJ
0.833 LW
N
250 108.281 M
257.44 108.281 L
S
GR
GS
[0.6 0 0 0.6 0 0.39996] CT
0.149 GC
2 setlinecap
1 LJ
0.833 LW
N
250 98.212 M
257.44 98.212 L
S
GR
GS
[0.6 0 0 0.6 0 0.39996] CT
0.149 GC
2 setlinecap
1 LJ
0.833 LW
N
250 89.698 M
257.44 89.698 L
S
GR
GS
[0.6 0 0 0.6 0 0.39996] CT
0.149 GC
2 setlinecap
1 LJ
0.833 LW
N
250 82.324 M
257.44 82.324 L
S
GR
GS
[0.6 0 0 0.6 0 0.39996] CT
0.149 GC
2 setlinecap
1 LJ
0.833 LW
N
250 75.819 M
257.44 75.819 L
S
GR
GS
[0.6 0 0 0.6 0 0.39996] CT
0.149 GC
2 setlinecap
1 LJ
0.833 LW
N
250 70 M
257.44 70 L
S
GR
GS
[0.6 0 0 0.6 0 0.39996] CT
0.149 GC
2 setlinecap
1 LJ
0.833 LW
N
1738 833 M
1730.56 833 L
S
GR
GS
[0.6 0 0 0.6 0 0.39996] CT
0.149 GC
2 setlinecap
1 LJ
0.833 LW
N
1738 794.719 M
1730.56 794.719 L
S
GR
GS
[0.6 0 0 0.6 0 0.39996] CT
0.149 GC
2 setlinecap
1 LJ
0.833 LW
N
1738 772.326 M
1730.56 772.326 L
S
GR
GS
[0.6 0 0 0.6 0 0.39996] CT
0.149 GC
2 setlinecap
1 LJ
0.833 LW
N
1738 756.438 M
1730.56 756.438 L
S
GR
GS
[0.6 0 0 0.6 0 0.39996] CT
0.149 GC
2 setlinecap
1 LJ
0.833 LW
N
1738 744.114 M
1730.56 744.114 L
S
GR
GS
[0.6 0 0 0.6 0 0.39996] CT
0.149 GC
2 setlinecap
1 LJ
0.833 LW
N
1738 734.045 M
1730.56 734.045 L
S
GR
GS
[0.6 0 0 0.6 0 0.39996] CT
0.149 GC
2 setlinecap
1 LJ
0.833 LW
N
1738 725.532 M
1730.56 725.532 L
S
GR
GS
[0.6 0 0 0.6 0 0.39996] CT
0.149 GC
2 setlinecap
1 LJ
0.833 LW
N
1738 718.157 M
1730.56 718.157 L
S
GR
GS
[0.6 0 0 0.6 0 0.39996] CT
0.149 GC
2 setlinecap
1 LJ
0.833 LW
N
1738 711.652 M
1730.56 711.652 L
S
GR
GS
[0.6 0 0 0.6 0 0.39996] CT
0.149 GC
2 setlinecap
1 LJ
0.833 LW
N
1738 705.833 M
1730.56 705.833 L
S
GR
GS
[0.6 0 0 0.6 0 0.39996] CT
0.149 GC
2 setlinecap
1 LJ
0.833 LW
N
1738 705.833 M
1730.56 705.833 L
S
GR
GS
[0.6 0 0 0.6 0 0.39996] CT
0.149 GC
2 setlinecap
1 LJ
0.833 LW
N
1738 667.552 M
1730.56 667.552 L
S
GR
GS
[0.6 0 0 0.6 0 0.39996] CT
0.149 GC
2 setlinecap
1 LJ
0.833 LW
N
1738 645.159 M
1730.56 645.159 L
S
GR
GS
[0.6 0 0 0.6 0 0.39996] CT
0.149 GC
2 setlinecap
1 LJ
0.833 LW
N
1738 629.271 M
1730.56 629.271 L
S
GR
GS
[0.6 0 0 0.6 0 0.39996] CT
0.149 GC
2 setlinecap
1 LJ
0.833 LW
N
1738 616.948 M
1730.56 616.948 L
S
GR
GS
[0.6 0 0 0.6 0 0.39996] CT
0.149 GC
2 setlinecap
1 LJ
0.833 LW
N
1738 606.878 M
1730.56 606.878 L
S
GR
GS
[0.6 0 0 0.6 0 0.39996] CT
0.149 GC
2 setlinecap
1 LJ
0.833 LW
N
1738 598.365 M
1730.56 598.365 L
S
GR
GS
[0.6 0 0 0.6 0 0.39996] CT
0.149 GC
2 setlinecap
1 LJ
0.833 LW
N
1738 590.99 M
1730.56 590.99 L
S
GR
GS
[0.6 0 0 0.6 0 0.39996] CT
0.149 GC
2 setlinecap
1 LJ
0.833 LW
N
1738 584.485 M
1730.56 584.485 L
S
GR
GS
[0.6 0 0 0.6 0 0.39996] CT
0.149 GC
2 setlinecap
1 LJ
0.833 LW
N
1738 578.667 M
1730.56 578.667 L
S
GR
GS
[0.6 0 0 0.6 0 0.39996] CT
0.149 GC
2 setlinecap
1 LJ
0.833 LW
N
1738 540.386 M
1730.56 540.386 L
S
GR
GS
[0.6 0 0 0.6 0 0.39996] CT
0.149 GC
2 setlinecap
1 LJ
0.833 LW
N
1738 517.993 M
1730.56 517.993 L
S
GR
GS
[0.6 0 0 0.6 0 0.39996] CT
0.149 GC
2 setlinecap
1 LJ
0.833 LW
N
1738 502.105 M
1730.56 502.105 L
S
GR
GS
[0.6 0 0 0.6 0 0.39996] CT
0.149 GC
2 setlinecap
1 LJ
0.833 LW
N
1738 489.781 M
1730.56 489.781 L
S
GR
GS
[0.6 0 0 0.6 0 0.39996] CT
0.149 GC
2 setlinecap
1 LJ
0.833 LW
N
1738 479.712 M
1730.56 479.712 L
S
GR
GS
[0.6 0 0 0.6 0 0.39996] CT
0.149 GC
2 setlinecap
1 LJ
0.833 LW
N
1738 471.198 M
1730.56 471.198 L
S
GR
GS
[0.6 0 0 0.6 0 0.39996] CT
0.149 GC
2 setlinecap
1 LJ
0.833 LW
N
1738 463.824 M
1730.56 463.824 L
S
GR
GS
[0.6 0 0 0.6 0 0.39996] CT
0.149 GC
2 setlinecap
1 LJ
0.833 LW
N
1738 457.319 M
1730.56 457.319 L
S
GR
GS
[0.6 0 0 0.6 0 0.39996] CT
0.149 GC
2 setlinecap
1 LJ
0.833 LW
N
1738 451.5 M
1730.56 451.5 L
S
GR
GS
[0.6 0 0 0.6 0 0.39996] CT
0.149 GC
2 setlinecap
1 LJ
0.833 LW
N
1738 413.219 M
1730.56 413.219 L
S
GR
GS
[0.6 0 0 0.6 0 0.39996] CT
0.149 GC
2 setlinecap
1 LJ
0.833 LW
N
1738 390.826 M
1730.56 390.826 L
S
GR
GS
[0.6 0 0 0.6 0 0.39996] CT
0.149 GC
2 setlinecap
1 LJ
0.833 LW
N
1738 374.938 M
1730.56 374.938 L
S
GR
GS
[0.6 0 0 0.6 0 0.39996] CT
0.149 GC
2 setlinecap
1 LJ
0.833 LW
N
1738 362.614 M
1730.56 362.614 L
S
GR
GS
[0.6 0 0 0.6 0 0.39996] CT
0.149 GC
2 setlinecap
1 LJ
0.833 LW
N
1738 352.545 M
1730.56 352.545 L
S
GR
GS
[0.6 0 0 0.6 0 0.39996] CT
0.149 GC
2 setlinecap
1 LJ
0.833 LW
N
1738 344.032 M
1730.56 344.032 L
S
GR
GS
[0.6 0 0 0.6 0 0.39996] CT
0.149 GC
2 setlinecap
1 LJ
0.833 LW
N
1738 336.657 M
1730.56 336.657 L
S
GR
GS
[0.6 0 0 0.6 0 0.39996] CT
0.149 GC
2 setlinecap
1 LJ
0.833 LW
N
1738 330.152 M
1730.56 330.152 L
S
GR
GS
[0.6 0 0 0.6 0 0.39996] CT
0.149 GC
2 setlinecap
1 LJ
0.833 LW
N
1738 324.333 M
1730.56 324.333 L
S
GR
GS
[0.6 0 0 0.6 0 0.39996] CT
0.149 GC
2 setlinecap
1 LJ
0.833 LW
N
1738 286.052 M
1730.56 286.052 L
S
GR
GS
[0.6 0 0 0.6 0 0.39996] CT
0.149 GC
2 setlinecap
1 LJ
0.833 LW
N
1738 263.659 M
1730.56 263.659 L
S
GR
GS
[0.6 0 0 0.6 0 0.39996] CT
0.149 GC
2 setlinecap
1 LJ
0.833 LW
N
1738 247.771 M
1730.56 247.771 L
S
GR
GS
[0.6 0 0 0.6 0 0.39996] CT
0.149 GC
2 setlinecap
1 LJ
0.833 LW
N
1738 235.448 M
1730.56 235.448 L
S
GR
GS
[0.6 0 0 0.6 0 0.39996] CT
0.149 GC
2 setlinecap
1 LJ
0.833 LW
N
1738 225.378 M
1730.56 225.378 L
S
GR
GS
[0.6 0 0 0.6 0 0.39996] CT
0.149 GC
2 setlinecap
1 LJ
0.833 LW
N
1738 216.865 M
1730.56 216.865 L
S
GR
GS
[0.6 0 0 0.6 0 0.39996] CT
0.149 GC
2 setlinecap
1 LJ
0.833 LW
N
1738 209.49 M
1730.56 209.49 L
S
GR
GS
[0.6 0 0 0.6 0 0.39996] CT
0.149 GC
2 setlinecap
1 LJ
0.833 LW
N
1738 202.986 M
1730.56 202.986 L
S
GR
GS
[0.6 0 0 0.6 0 0.39996] CT
0.149 GC
2 setlinecap
1 LJ
0.833 LW
N
1738 197.167 M
1730.56 197.167 L
S
GR
GS
[0.6 0 0 0.6 0 0.39996] CT
0.149 GC
2 setlinecap
1 LJ
0.833 LW
N
1738 158.886 M
1730.56 158.886 L
S
GR
GS
[0.6 0 0 0.6 0 0.39996] CT
0.149 GC
2 setlinecap
1 LJ
0.833 LW
N
1738 136.493 M
1730.56 136.493 L
S
GR
GS
[0.6 0 0 0.6 0 0.39996] CT
0.149 GC
2 setlinecap
1 LJ
0.833 LW
N
1738 120.605 M
1730.56 120.605 L
S
GR
GS
[0.6 0 0 0.6 0 0.39996] CT
0.149 GC
2 setlinecap
1 LJ
0.833 LW
N
1738 108.281 M
1730.56 108.281 L
S
GR
GS
[0.6 0 0 0.6 0 0.39996] CT
0.149 GC
2 setlinecap
1 LJ
0.833 LW
N
1738 98.212 M
1730.56 98.212 L
S
GR
GS
[0.6 0 0 0.6 0 0.39996] CT
0.149 GC
2 setlinecap
1 LJ
0.833 LW
N
1738 89.698 M
1730.56 89.698 L
S
GR
GS
[0.6 0 0 0.6 0 0.39996] CT
0.149 GC
2 setlinecap
1 LJ
0.833 LW
N
1738 82.324 M
1730.56 82.324 L
S
GR
GS
[0.6 0 0 0.6 0 0.39996] CT
0.149 GC
2 setlinecap
1 LJ
0.833 LW
N
1738 75.819 M
1730.56 75.819 L
S
GR
GS
[0.6 0 0 0.6 0 0.39996] CT
0.149 GC
2 setlinecap
1 LJ
0.833 LW
N
1738 70 M
1730.56 70 L
S
GR
GS
[0.6 0 0 0.6 127.2 505.6] CT
0.149 GC
/Helvetica 16.667 F
GS
[1 0 0 1 0 0] CT
0 0 moveto 
1 -1 scale
(10) t 
GR
GR
GS
[0.6 0 0 0.6 138.6 500.8] CT
0.149 GC
/Helvetica 13.333 F
GS
[1 0 0 1 0 0] CT
0 0 moveto 
1 -1 scale
(-5) t 
GR
GR
GS
[0.6 0 0 0.6 127.2 429.39999] CT
0.149 GC
/Helvetica 16.667 F
GS
[1 0 0 1 0 0] CT
0 0 moveto 
1 -1 scale
(10) t 
GR
GR
GS
[0.6 0 0 0.6 138.6 424.59999] CT
0.149 GC
/Helvetica 13.333 F
GS
[1 0 0 1 0 0] CT
0 0 moveto 
1 -1 scale
(-4) t 
GR
GR
GS
[0.6 0 0 0.6 127.2 353.19999] CT
0.149 GC
/Helvetica 16.667 F
GS
[1 0 0 1 0 0] CT
0 0 moveto 
1 -1 scale
(10) t 
GR
GR
GS
[0.6 0 0 0.6 138.6 348.39999] CT
0.149 GC
/Helvetica 13.333 F
GS
[1 0 0 1 0 0] CT
0 0 moveto 
1 -1 scale
(-3) t 
GR
GR
GS
[0.6 0 0 0.6 127.2 276.99998] CT
0.149 GC
/Helvetica 16.667 F
GS
[1 0 0 1 0 0] CT
0 0 moveto 
1 -1 scale
(10) t 
GR
GR
GS
[0.6 0 0 0.6 138.6 272.19998] CT
0.149 GC
/Helvetica 13.333 F
GS
[1 0 0 1 0 0] CT
0 0 moveto 
1 -1 scale
(-2) t 
GR
GR
GS
[0.6 0 0 0.6 127.2 200.19998] CT
0.149 GC
/Helvetica 16.667 F
GS
[1 0 0 1 0 0] CT
0 0 moveto 
1 -1 scale
(10) t 
GR
GR
GS
[0.6 0 0 0.6 138.6 195.39998] CT
0.149 GC
/Helvetica 13.333 F
GS
[1 0 0 1 0 0] CT
0 0 moveto 
1 -1 scale
(-1) t 
GR
GR
GS
[0.6 0 0 0.6 129.6 123.99997] CT
0.149 GC
/Helvetica 16.667 F
GS
[1 0 0 1 0 0] CT
0 0 moveto 
1 -1 scale
(10) t 
GR
GR
GS
[0.6 0 0 0.6 141 119.19997] CT
0.149 GC
/Helvetica 13.333 F
GS
[1 0 0 1 0 0] CT
0 0 moveto 
1 -1 scale
(0) t 
GR
GR
GS
[0.6 0 0 0.6 129.6 47.79997] CT
0.149 GC
/Helvetica 16.667 F
GS
[1 0 0 1 0 0] CT
0 0 moveto 
1 -1 scale
(10) t 
GR
GR
GS
[0.6 0 0 0.6 141 42.99997] CT
0.149 GC
/Helvetica 13.333 F
GS
[1 0 0 1 0 0] CT
0 0 moveto 
1 -1 scale
(1) t 
GR
GR
GS
[0 -0.6 0.6 0 124.4 271.29976] CT
0.149 GC
/Helvetica 18.333 F
GS
[1 0 0 1 0 0] CT
-58.5 -4 moveto 
1 -1 scale
(execution time) t 
GR
GR
GS
[0.6 0 0 0.6 596.40059 40.74998] CT
/Helvetica-Bold 18.333 F
GS
[1 0 0 1 0 0] CT
-391 -4 moveto 
1 -1 scale
(Comparison \\-operator in Matlab and Thomas-algorithm for tridiagonal system of equations) t 
GR
GR
GS
[0.6 0 0 0.6 0 0.39996] CT
0 0.447 0.741 RC
1 LJ
0.833 LW
N
250 678.039 M
397.801 674.451 L
547.357 622.571 L
696.313 574.752 L
845.222 510.577 L
994 464.587 L
1142.822 405.529 L
1291.615 334.382 L
1440.394 270.446 L
1589.222 207.088 L
1738 136.225 L
S
GR
GS
[0.6 0 0 0.6 0 0.39996] CT
0.851 0.325 0.098 RC
1 LJ
0.833 LW
N
250 717.291 M
397.801 827.823 L
547.357 816.058 L
696.313 793.773 L
845.222 772.281 L
994 752.619 L
1142.822 722.97 L
1291.615 697.173 L
1440.394 693.581 L
1589.222 669.242 L
1738 644.514 L
S
GR
GS
[0.6 0 0 0.6 0 0.39996] CT
1 GC
N
1513 136 M
1513 87 L
1721 87 L
1721 136 L
cp
f
GR
GS
[0.6 0 0 0.6 935.4 65.79997] CT
/Helvetica 15 F
GS
[1 0 0 1 0 0] CT
0 0 moveto 
1 -1 scale
(Matlab backslash O\(J) t 
GR
GR
GS
[0.6 0 0 0.6 1022.4 61.59997] CT
/Helvetica 12 F
GS
[1 0 0 1 0 0] CT
0 0 moveto 
1 -1 scale
(3) t 
GR
GR
GS
[0.6 0 0 0.6 1026.6 65.79997] CT
/Helvetica 15 F
GS
[1 0 0 1 0 0] CT
0 0 moveto 
1 -1 scale
(\)) t 
GR
GR
GS
[0.6 0 0 0.6 0 0.39996] CT
0 0.447 0.741 RC
1 LJ
0.833 LW
N
1517.994 101.317 M
1555.449 101.317 L
S
GR
GS
[0.6 0 0 0.6 935.51667 74.59443] CT
/Helvetica 15 F
GS
[1 0 0 1 0 0] CT
0 6 moveto 
1 -1 scale
(Thomas algorithm O\(J\)) t 
GR
GR
GS
[0.6 0 0 0.6 0 0.39996] CT
0.851 0.325 0.098 RC
1 LJ
0.833 LW
N
1517.994 123.657 M
1555.449 123.657 L
S
GR
GS
[0.6 0 0 0.6 0 0.39996] CT
0.149 GC
10.0 ML
0.833 LW
N
1513 136 M
1513 87 L
1721 87 L
1721 136 L
cp
S
GR
%%Trailer
%%Pages: 1
%%EOF
