%!PS-Adobe-3.0 EPSF-3.0
%%Creator: (MATLAB, The Mathworks, Inc. Version 9.1.0.441655 \(R2016b\). Operating System: Linux)
%%Title: (/home/hannes/WIT/PDE/assignment 1/verslag/phasefield.eps)
%%CreationDate: 2016-11-08T11:23:30
%%Pages: (atend)
%%BoundingBox: 0 0 653 496
%%LanguageLevel: 3
%%EndComments
%%BeginProlog
%%BeginResource: procset (Apache XML Graphics Std ProcSet) 1.2 0
%%Version: 1.2 0
%%Copyright: (Copyright 2001-2003,2010 The Apache Software Foundation. License terms: http://www.apache.org/licenses/LICENSE-2.0)
/bd{bind def}bind def
/ld{load def}bd
/GR/grestore ld
/M/moveto ld
/LJ/setlinejoin ld
/C/curveto ld
/f/fill ld
/LW/setlinewidth ld
/GC/setgray ld
/t/show ld
/N/newpath ld
/CT/concat ld
/cp/closepath ld
/S/stroke ld
/L/lineto ld
/CC/setcmykcolor ld
/A/ashow ld
/GS/gsave ld
/RC/setrgbcolor ld
/RM/rmoveto ld
/ML/setmiterlimit ld
/re {4 2 roll M
1 index 0 rlineto
0 exch rlineto
neg 0 rlineto
cp } bd
/_ctm matrix def
/_tm matrix def
/BT { _ctm currentmatrix pop matrix _tm copy pop 0 0 moveto } bd
/ET { _ctm setmatrix } bd
/iTm { _ctm setmatrix _tm concat } bd
/Tm { _tm astore pop iTm 0 0 moveto } bd
/ux 0.0 def
/uy 0.0 def
/F {
  /Tp exch def
  /Tf exch def
  Tf findfont Tp scalefont setfont
  /cf Tf def  /cs Tp def
} bd
/ULS {currentpoint /uy exch def /ux exch def} bd
/ULE {
  /Tcx currentpoint pop def
  gsave
  newpath
  cf findfont cs scalefont dup
  /FontMatrix get 0 get /Ts exch def /FontInfo get dup
  /UnderlinePosition get Ts mul /To exch def
  /UnderlineThickness get Ts mul /Tt exch def
  ux uy To add moveto  Tcx uy To add lineto
  Tt setlinewidth stroke
  grestore
} bd
/OLE {
  /Tcx currentpoint pop def
  gsave
  newpath
  cf findfont cs scalefont dup
  /FontMatrix get 0 get /Ts exch def /FontInfo get dup
  /UnderlinePosition get Ts mul /To exch def
  /UnderlineThickness get Ts mul /Tt exch def
  ux uy To add cs add moveto Tcx uy To add cs add lineto
  Tt setlinewidth stroke
  grestore
} bd
/SOE {
  /Tcx currentpoint pop def
  gsave
  newpath
  cf findfont cs scalefont dup
  /FontMatrix get 0 get /Ts exch def /FontInfo get dup
  /UnderlinePosition get Ts mul /To exch def
  /UnderlineThickness get Ts mul /Tt exch def
  ux uy To add cs 10 mul 26 idiv add moveto Tcx uy To add cs 10 mul 26 idiv add lineto
  Tt setlinewidth stroke
  grestore
} bd
/QT {
/Y22 exch store
/X22 exch store
/Y21 exch store
/X21 exch store
currentpoint
/Y21 load 2 mul add 3 div exch
/X21 load 2 mul add 3 div exch
/X21 load 2 mul /X22 load add 3 div
/Y21 load 2 mul /Y22 load add 3 div
/X22 load /Y22 load curveto
} bd
/SSPD {
dup length /d exch dict def
{
/v exch def
/k exch def
currentpagedevice k known {
/cpdv currentpagedevice k get def
v cpdv ne {
/upd false def
/nullv v type /nulltype eq def
/nullcpdv cpdv type /nulltype eq def
nullv nullcpdv or
{
/upd true def
} {
/sametype v type cpdv type eq def
sametype {
v type /arraytype eq {
/vlen v length def
/cpdvlen cpdv length def
vlen cpdvlen eq {
0 1 vlen 1 sub {
/i exch def
/obj v i get def
/cpdobj cpdv i get def
obj cpdobj ne {
/upd true def
exit
} if
} for
} {
/upd true def
} ifelse
} {
v type /dicttype eq {
v {
/dv exch def
/dk exch def
/cpddv cpdv dk get def
dv cpddv ne {
/upd true def
exit
} if
} forall
} {
/upd true def
} ifelse
} ifelse
} if
} ifelse
upd true eq {
d k v put
} if
} if
} if
} forall
d length 0 gt {
d setpagedevice
} if
} bd
/RE { % /NewFontName [NewEncodingArray] /FontName RE -
  findfont dup length dict begin
  {
    1 index /FID ne
    {def} {pop pop} ifelse
  } forall
  /Encoding exch def
  /FontName 1 index def
  currentdict definefont pop
  end
} bind def
%%EndResource
%%BeginResource: procset (Apache XML Graphics EPS ProcSet) 1.0 0
%%Version: 1.0 0
%%Copyright: (Copyright 2002-2003 The Apache Software Foundation. License terms: http://www.apache.org/licenses/LICENSE-2.0)
/BeginEPSF { %def
/b4_Inc_state save def         % Save state for cleanup
/dict_count countdictstack def % Count objects on dict stack
/op_count count 1 sub def      % Count objects on operand stack
userdict begin                 % Push userdict on dict stack
/showpage { } def              % Redefine showpage, { } = null proc
0 setgray 0 setlinecap         % Prepare graphics state
1 setlinewidth 0 setlinejoin
10 setmiterlimit [ ] 0 setdash newpath
/languagelevel where           % If level not equal to 1 then
{pop languagelevel             % set strokeadjust and
1 ne                           % overprint to their defaults.
{false setstrokeadjust false setoverprint
} if
} if
} bd
/EndEPSF { %def
count op_count sub {pop} repeat            % Clean up stacks
countdictstack dict_count sub {end} repeat
b4_Inc_state restore
} bd
%%EndResource
%FOPBeginFontDict
%%IncludeResource: font Courier-Bold
%%IncludeResource: font Helvetica
%%IncludeResource: font Courier-BoldOblique
%%IncludeResource: font Courier-Oblique
%%IncludeResource: font Times-Roman
%%IncludeResource: font Helvetica-BoldOblique
%%IncludeResource: font Helvetica-Bold
%%IncludeResource: font Helvetica-Oblique
%%IncludeResource: font Times-BoldItalic
%%IncludeResource: font Courier
%%IncludeResource: font Times-Italic
%%IncludeResource: font Times-Bold
%%IncludeResource: font Symbol
%%IncludeResource: font ZapfDingbats
%FOPEndFontDict
%%BeginResource: encoding WinAnsiEncoding
/WinAnsiEncoding [
/.notdef /.notdef /.notdef /.notdef /.notdef
/.notdef /.notdef /.notdef /.notdef /.notdef
/.notdef /.notdef /.notdef /.notdef /.notdef
/.notdef /.notdef /.notdef /.notdef /.notdef
/.notdef /.notdef /.notdef /.notdef /.notdef
/.notdef /.notdef /.notdef /.notdef /.notdef
/.notdef /.notdef /space /exclam /quotedbl
/numbersign /dollar /percent /ampersand /quotesingle
/parenleft /parenright /asterisk /plus /comma
/hyphen /period /slash /zero /one
/two /three /four /five /six
/seven /eight /nine /colon /semicolon
/less /equal /greater /question /at
/A /B /C /D /E
/F /G /H /I /J
/K /L /M /N /O
/P /Q /R /S /T
/U /V /W /X /Y
/Z /bracketleft /backslash /bracketright /asciicircum
/underscore /quoteleft /a /b /c
/d /e /f /g /h
/i /j /k /l /m
/n /o /p /q /r
/s /t /u /v /w
/x /y /z /braceleft /bar
/braceright /asciitilde /bullet /Euro /bullet
/quotesinglbase /florin /quotedblbase /ellipsis /dagger
/daggerdbl /circumflex /perthousand /Scaron /guilsinglleft
/OE /bullet /Zcaron /bullet /bullet
/quoteleft /quoteright /quotedblleft /quotedblright /bullet
/endash /emdash /asciitilde /trademark /scaron
/guilsinglright /oe /bullet /zcaron /Ydieresis
/space /exclamdown /cent /sterling /currency
/yen /brokenbar /section /dieresis /copyright
/ordfeminine /guillemotleft /logicalnot /sfthyphen /registered
/macron /degree /plusminus /twosuperior /threesuperior
/acute /mu /paragraph /middot /cedilla
/onesuperior /ordmasculine /guillemotright /onequarter /onehalf
/threequarters /questiondown /Agrave /Aacute /Acircumflex
/Atilde /Adieresis /Aring /AE /Ccedilla
/Egrave /Eacute /Ecircumflex /Edieresis /Igrave
/Iacute /Icircumflex /Idieresis /Eth /Ntilde
/Ograve /Oacute /Ocircumflex /Otilde /Odieresis
/multiply /Oslash /Ugrave /Uacute /Ucircumflex
/Udieresis /Yacute /Thorn /germandbls /agrave
/aacute /acircumflex /atilde /adieresis /aring
/ae /ccedilla /egrave /eacute /ecircumflex
/edieresis /igrave /iacute /icircumflex /idieresis
/eth /ntilde /ograve /oacute /ocircumflex
/otilde /odieresis /divide /oslash /ugrave
/uacute /ucircumflex /udieresis /yacute /thorn
/ydieresis
] def
%%EndResource
%FOPBeginFontReencode
/Courier-Bold findfont
dup length dict begin
  {1 index /FID ne {def} {pop pop} ifelse} forall
  /Encoding WinAnsiEncoding def
  currentdict
end
/Courier-Bold exch definefont pop
/Helvetica findfont
dup length dict begin
  {1 index /FID ne {def} {pop pop} ifelse} forall
  /Encoding WinAnsiEncoding def
  currentdict
end
/Helvetica exch definefont pop
/Courier-BoldOblique findfont
dup length dict begin
  {1 index /FID ne {def} {pop pop} ifelse} forall
  /Encoding WinAnsiEncoding def
  currentdict
end
/Courier-BoldOblique exch definefont pop
/Courier-Oblique findfont
dup length dict begin
  {1 index /FID ne {def} {pop pop} ifelse} forall
  /Encoding WinAnsiEncoding def
  currentdict
end
/Courier-Oblique exch definefont pop
/Times-Roman findfont
dup length dict begin
  {1 index /FID ne {def} {pop pop} ifelse} forall
  /Encoding WinAnsiEncoding def
  currentdict
end
/Times-Roman exch definefont pop
/Helvetica-BoldOblique findfont
dup length dict begin
  {1 index /FID ne {def} {pop pop} ifelse} forall
  /Encoding WinAnsiEncoding def
  currentdict
end
/Helvetica-BoldOblique exch definefont pop
/Helvetica-Bold findfont
dup length dict begin
  {1 index /FID ne {def} {pop pop} ifelse} forall
  /Encoding WinAnsiEncoding def
  currentdict
end
/Helvetica-Bold exch definefont pop
/Helvetica-Oblique findfont
dup length dict begin
  {1 index /FID ne {def} {pop pop} ifelse} forall
  /Encoding WinAnsiEncoding def
  currentdict
end
/Helvetica-Oblique exch definefont pop
/Times-BoldItalic findfont
dup length dict begin
  {1 index /FID ne {def} {pop pop} ifelse} forall
  /Encoding WinAnsiEncoding def
  currentdict
end
/Times-BoldItalic exch definefont pop
/Courier findfont
dup length dict begin
  {1 index /FID ne {def} {pop pop} ifelse} forall
  /Encoding WinAnsiEncoding def
  currentdict
end
/Courier exch definefont pop
/Times-Italic findfont
dup length dict begin
  {1 index /FID ne {def} {pop pop} ifelse} forall
  /Encoding WinAnsiEncoding def
  currentdict
end
/Times-Italic exch definefont pop
/Times-Bold findfont
dup length dict begin
  {1 index /FID ne {def} {pop pop} ifelse} forall
  /Encoding WinAnsiEncoding def
  currentdict
end
/Times-Bold exch definefont pop
%FOPEndFontReencode
%%EndProlog
%%Page: 1 1
%%PageBoundingBox: 0 0 653 496
%%BeginPageSetup
[1 0 0 -1 0 496] CT
%%EndPageSetup
GS
[0.75 0 0 0.75 0 0.25] CT
N
0 0 M
870 0 L
870 661 L
0 661 L
0 0 L
cp
clip
1 GC
N
0 0 870 661 re
f
GR
GS
[0.75 0 0 0.75 0 0.25] CT
1 GC
N
0 0 870 661 re
f
GR
GS
[0.75 0 0 0.75 0 0.25] CT
1 GC
N
113 186 M
404 186 L
404 51 L
113 51 L
cp
f
GR
GS
[0.75 0 0 0.75 0 0.25] CT
0.149 GC
2 setlinecap
1 LJ
0.667 LW
N
113 186 M
404 186 L
S
GR
GS
[0.75 0 0 0.75 0 0.25] CT
0.149 GC
2 setlinecap
1 LJ
0.667 LW
N
113 51 M
404 51 L
S
GR
GS
[0.75 0 0 0.75 0 0.25] CT
0.149 GC
2 setlinecap
1 LJ
0.667 LW
N
113 186 M
113 183.09 L
S
GR
GS
[0.75 0 0 0.75 0 0.25] CT
0.149 GC
2 setlinecap
1 LJ
0.667 LW
N
171.2 186 M
171.2 183.09 L
S
GR
GS
[0.75 0 0 0.75 0 0.25] CT
0.149 GC
2 setlinecap
1 LJ
0.667 LW
N
229.4 186 M
229.4 183.09 L
S
GR
GS
[0.75 0 0 0.75 0 0.25] CT
0.149 GC
2 setlinecap
1 LJ
0.667 LW
N
287.6 186 M
287.6 183.09 L
S
GR
GS
[0.75 0 0 0.75 0 0.25] CT
0.149 GC
2 setlinecap
1 LJ
0.667 LW
N
345.8 186 M
345.8 183.09 L
S
GR
GS
[0.75 0 0 0.75 0 0.25] CT
0.149 GC
2 setlinecap
1 LJ
0.667 LW
N
404 186 M
404 183.09 L
S
GR
GS
[0.75 0 0 0.75 0 0.25] CT
0.149 GC
2 setlinecap
1 LJ
0.667 LW
N
113 51 M
113 53.91 L
S
GR
GS
[0.75 0 0 0.75 0 0.25] CT
0.149 GC
2 setlinecap
1 LJ
0.667 LW
N
171.2 51 M
171.2 53.91 L
S
GR
GS
[0.75 0 0 0.75 0 0.25] CT
0.149 GC
2 setlinecap
1 LJ
0.667 LW
N
229.4 51 M
229.4 53.91 L
S
GR
GS
[0.75 0 0 0.75 0 0.25] CT
0.149 GC
2 setlinecap
1 LJ
0.667 LW
N
287.6 51 M
287.6 53.91 L
S
GR
GS
[0.75 0 0 0.75 0 0.25] CT
0.149 GC
2 setlinecap
1 LJ
0.667 LW
N
345.8 51 M
345.8 53.91 L
S
GR
GS
[0.75 0 0 0.75 0 0.25] CT
0.149 GC
2 setlinecap
1 LJ
0.667 LW
N
404 51 M
404 53.91 L
S
GR
GS
[0.75 0 0 0.75 84.75 143.75] CT
0.149 GC
/Helvetica 13.333 F
GS
[1 0 0 1 0 0] CT
-4.5 13 moveto 
1 -1 scale
(0) t 
GR
GR
GS
[0.75 0 0 0.75 128.4 143.75] CT
0.149 GC
/Helvetica 13.333 F
GS
[1 0 0 1 0 0] CT
-10.5 13 moveto 
1 -1 scale
(0.2) t 
GR
GR
GS
[0.75 0 0 0.75 172.05001 143.75] CT
0.149 GC
/Helvetica 13.333 F
GS
[1 0 0 1 0 0] CT
-10.5 13 moveto 
1 -1 scale
(0.4) t 
GR
GR
GS
[0.75 0 0 0.75 215.7 143.75] CT
0.149 GC
/Helvetica 13.333 F
GS
[1 0 0 1 0 0] CT
-10.5 13 moveto 
1 -1 scale
(0.6) t 
GR
GR
GS
[0.75 0 0 0.75 259.35001 143.75] CT
0.149 GC
/Helvetica 13.333 F
GS
[1 0 0 1 0 0] CT
-10.5 13 moveto 
1 -1 scale
(0.8) t 
GR
GR
GS
[0.75 0 0 0.75 303 143.75] CT
0.149 GC
/Helvetica 13.333 F
GS
[1 0 0 1 0 0] CT
-4.5 13 moveto 
1 -1 scale
(1) t 
GR
GR
GS
[0.75 0 0 0.75 193.87511 157.5] CT
0.149 GC
/Helvetica 14.667 F
GS
[1 0 0 1 0 0] CT
-4.5 14 moveto 
1 -1 scale
(x) t 
GR
GR
GS
[0.75 0 0 0.75 0 0.25] CT
0.149 GC
2 setlinecap
1 LJ
0.667 LW
N
113 186 M
113 51 L
S
GR
GS
[0.75 0 0 0.75 0 0.25] CT
0.149 GC
2 setlinecap
1 LJ
0.667 LW
N
404 186 M
404 51 L
S
GR
GS
[0.75 0 0 0.75 0 0.25] CT
0.149 GC
2 setlinecap
1 LJ
0.667 LW
N
113 186 M
115.91 186 L
S
GR
GS
[0.75 0 0 0.75 0 0.25] CT
0.149 GC
2 setlinecap
1 LJ
0.667 LW
N
113 141 M
115.91 141 L
S
GR
GS
[0.75 0 0 0.75 0 0.25] CT
0.149 GC
2 setlinecap
1 LJ
0.667 LW
N
113 96 M
115.91 96 L
S
GR
GS
[0.75 0 0 0.75 0 0.25] CT
0.149 GC
2 setlinecap
1 LJ
0.667 LW
N
113 51 M
115.91 51 L
S
GR
GS
[0.75 0 0 0.75 0 0.25] CT
0.149 GC
2 setlinecap
1 LJ
0.667 LW
N
404 186 M
401.09 186 L
S
GR
GS
[0.75 0 0 0.75 0 0.25] CT
0.149 GC
2 setlinecap
1 LJ
0.667 LW
N
404 141 M
401.09 141 L
S
GR
GS
[0.75 0 0 0.75 0 0.25] CT
0.149 GC
2 setlinecap
1 LJ
0.667 LW
N
404 96 M
401.09 96 L
S
GR
GS
[0.75 0 0 0.75 0 0.25] CT
0.149 GC
2 setlinecap
1 LJ
0.667 LW
N
404 51 M
401.09 51 L
S
GR
GS
[0.75 0 0 0.75 80.75 139.75] CT
0.149 GC
/Helvetica 13.333 F
GS
[1 0 0 1 0 0] CT
-26 4.5 moveto 
1 -1 scale
(-0.5) t 
GR
GR
GS
[0.75 0 0 0.75 80.75 106] CT
0.149 GC
/Helvetica 13.333 F
GS
[1 0 0 1 0 0] CT
-9 4.5 moveto 
1 -1 scale
(0) t 
GR
GR
GS
[0.75 0 0 0.75 80.75 72.25] CT
0.149 GC
/Helvetica 13.333 F
GS
[1 0 0 1 0 0] CT
-21 4.5 moveto 
1 -1 scale
(0.5) t 
GR
GR
GS
[0.75 0 0 0.75 80.75 38.5] CT
0.149 GC
/Helvetica 13.333 F
GS
[1 0 0 1 0 0] CT
-9 4.5 moveto 
1 -1 scale
(1) t 
GR
GR
GS
[0 -0.75 0.75 0 58.25 89.12495] CT
0.149 GC
/Helvetica 14.667 F
GS
[1 0 0 1 0 0] CT
-25.5 -4 moveto 
1 -1 scale
(u\(x, tf\)) t 
GR
GR
GS
[0.75 0 0 0.75 193.87518 36.4375] CT
/Helvetica-Bold 14.667 F
GS
[1 0 0 1 0 0] CT
-24 -4 moveto 
1 -1 scale
(tf = 0) t 
GR
GR
GS
[0.75 0 0 0.75 0 0.25] CT
0 0.447 0.741 RC
1 LJ
0.667 LW
N
113 141 M
115.91 51 L
118.82 51.002 L
121.73 51.011 L
124.64 51.034 L
127.55 51.082 L
130.46 51.17 L
133.37 51.315 L
136.28 51.538 L
139.19 51.86 L
142.1 52.309 L
145.01 52.913 L
147.92 53.702 L
150.83 54.709 L
153.74 55.967 L
156.65 57.511 L
159.56 59.374 L
162.47 61.588 L
165.38 64.183 L
168.29 67.185 L
171.2 70.613 L
174.11 74.481 L
177.02 78.792 L
179.93 83.541 L
182.84 88.706 L
185.75 94.257 L
188.66 100.143 L
191.57 106.3 L
194.48 112.646 L
197.39 119.084 L
200.3 125.5 L
203.21 131.768 L
206.12 137.752 L
209.03 143.309 L
211.94 148.297 L
214.85 152.579 L
217.76 156.032 L
220.67 158.555 L
223.58 160.073 L
226.49 160.55 L
229.4 159.992 L
232.31 158.452 L
235.22 156.034 L
238.13 152.89 L
241.04 149.219 L
243.95 145.255 L
246.86 141.258 L
249.77 137.497 L
252.68 134.232 L
255.59 131.693 L
258.5 130.061 L
261.41 129.45 L
264.32 129.889 L
267.23 131.319 L
270.14 133.589 L
273.05 136.466 L
275.96 139.653 L
278.87 142.814 L
281.78 145.612 L
284.69 147.742 L
287.6 148.97 L
290.51 149.167 L
293.42 148.326 L
296.33 146.571 L
299.24 144.151 L
302.15 141.407 L
305.06 138.731 L
307.97 136.51 L
310.88 135.07 L
313.79 134.621 L
316.7 135.219 L
319.61 136.75 L
322.52 138.941 L
325.43 141.402 L
328.34 143.69 L
331.25 145.386 L
334.16 146.181 L
337.07 145.932 L
339.98 144.705 L
342.89 142.764 L
345.8 140.525 L
348.71 138.474 L
351.62 137.058 L
354.53 136.589 L
357.44 137.162 L
360.35 138.629 L
363.26 140.62 L
366.17 142.637 L
369.08 144.165 L
371.99 144.815 L
374.9 144.425 L
377.81 143.114 L
380.72 141.258 L
383.63 139.39 L
386.54 138.052 L
389.45 137.633 L
392.36 138.248 L
395.27 139.696 L
398.18 141.51 L
401.09 143.103 L
404 141 L
S
GR
GS
[0.75 0 0 0.75 0 0.25] CT
1 GC
N
496 186 M
787 186 L
787 51 L
496 51 L
cp
f
GR
GS
[0.75 0 0 0.75 0 0.25] CT
0.149 GC
2 setlinecap
1 LJ
0.667 LW
N
496 186 M
787 186 L
S
GR
GS
[0.75 0 0 0.75 0 0.25] CT
0.149 GC
2 setlinecap
1 LJ
0.667 LW
N
496 51 M
787 51 L
S
GR
GS
[0.75 0 0 0.75 0 0.25] CT
0.149 GC
2 setlinecap
1 LJ
0.667 LW
N
496 186 M
496 183.09 L
S
GR
GS
[0.75 0 0 0.75 0 0.25] CT
0.149 GC
2 setlinecap
1 LJ
0.667 LW
N
554.2 186 M
554.2 183.09 L
S
GR
GS
[0.75 0 0 0.75 0 0.25] CT
0.149 GC
2 setlinecap
1 LJ
0.667 LW
N
612.4 186 M
612.4 183.09 L
S
GR
GS
[0.75 0 0 0.75 0 0.25] CT
0.149 GC
2 setlinecap
1 LJ
0.667 LW
N
670.6 186 M
670.6 183.09 L
S
GR
GS
[0.75 0 0 0.75 0 0.25] CT
0.149 GC
2 setlinecap
1 LJ
0.667 LW
N
728.8 186 M
728.8 183.09 L
S
GR
GS
[0.75 0 0 0.75 0 0.25] CT
0.149 GC
2 setlinecap
1 LJ
0.667 LW
N
787 186 M
787 183.09 L
S
GR
GS
[0.75 0 0 0.75 0 0.25] CT
0.149 GC
2 setlinecap
1 LJ
0.667 LW
N
496 51 M
496 53.91 L
S
GR
GS
[0.75 0 0 0.75 0 0.25] CT
0.149 GC
2 setlinecap
1 LJ
0.667 LW
N
554.2 51 M
554.2 53.91 L
S
GR
GS
[0.75 0 0 0.75 0 0.25] CT
0.149 GC
2 setlinecap
1 LJ
0.667 LW
N
612.4 51 M
612.4 53.91 L
S
GR
GS
[0.75 0 0 0.75 0 0.25] CT
0.149 GC
2 setlinecap
1 LJ
0.667 LW
N
670.6 51 M
670.6 53.91 L
S
GR
GS
[0.75 0 0 0.75 0 0.25] CT
0.149 GC
2 setlinecap
1 LJ
0.667 LW
N
728.8 51 M
728.8 53.91 L
S
GR
GS
[0.75 0 0 0.75 0 0.25] CT
0.149 GC
2 setlinecap
1 LJ
0.667 LW
N
787 51 M
787 53.91 L
S
GR
GS
[0.75 0 0 0.75 372 143.75] CT
0.149 GC
/Helvetica 13.333 F
GS
[1 0 0 1 0 0] CT
-4.5 13 moveto 
1 -1 scale
(0) t 
GR
GR
GS
[0.75 0 0 0.75 415.65001 143.75] CT
0.149 GC
/Helvetica 13.333 F
GS
[1 0 0 1 0 0] CT
-10.5 13 moveto 
1 -1 scale
(0.2) t 
GR
GR
GS
[0.75 0 0 0.75 459.30002 143.75] CT
0.149 GC
/Helvetica 13.333 F
GS
[1 0 0 1 0 0] CT
-10.5 13 moveto 
1 -1 scale
(0.4) t 
GR
GR
GS
[0.75 0 0 0.75 502.95003 143.75] CT
0.149 GC
/Helvetica 13.333 F
GS
[1 0 0 1 0 0] CT
-10.5 13 moveto 
1 -1 scale
(0.6) t 
GR
GR
GS
[0.75 0 0 0.75 546.59999 143.75] CT
0.149 GC
/Helvetica 13.333 F
GS
[1 0 0 1 0 0] CT
-10.5 13 moveto 
1 -1 scale
(0.8) t 
GR
GR
GS
[0.75 0 0 0.75 590.25 143.75] CT
0.149 GC
/Helvetica 13.333 F
GS
[1 0 0 1 0 0] CT
-4.5 13 moveto 
1 -1 scale
(1) t 
GR
GR
GS
[0.75 0 0 0.75 481.12509 157.5] CT
0.149 GC
/Helvetica 14.667 F
GS
[1 0 0 1 0 0] CT
-4.5 14 moveto 
1 -1 scale
(x) t 
GR
GR
GS
[0.75 0 0 0.75 0 0.25] CT
0.149 GC
2 setlinecap
1 LJ
0.667 LW
N
496 186 M
496 51 L
S
GR
GS
[0.75 0 0 0.75 0 0.25] CT
0.149 GC
2 setlinecap
1 LJ
0.667 LW
N
787 186 M
787 51 L
S
GR
GS
[0.75 0 0 0.75 0 0.25] CT
0.149 GC
2 setlinecap
1 LJ
0.667 LW
N
496 186 M
498.91 186 L
S
GR
GS
[0.75 0 0 0.75 0 0.25] CT
0.149 GC
2 setlinecap
1 LJ
0.667 LW
N
496 141 M
498.91 141 L
S
GR
GS
[0.75 0 0 0.75 0 0.25] CT
0.149 GC
2 setlinecap
1 LJ
0.667 LW
N
496 96 M
498.91 96 L
S
GR
GS
[0.75 0 0 0.75 0 0.25] CT
0.149 GC
2 setlinecap
1 LJ
0.667 LW
N
496 51 M
498.91 51 L
S
GR
GS
[0.75 0 0 0.75 0 0.25] CT
0.149 GC
2 setlinecap
1 LJ
0.667 LW
N
787 186 M
784.09 186 L
S
GR
GS
[0.75 0 0 0.75 0 0.25] CT
0.149 GC
2 setlinecap
1 LJ
0.667 LW
N
787 141 M
784.09 141 L
S
GR
GS
[0.75 0 0 0.75 0 0.25] CT
0.149 GC
2 setlinecap
1 LJ
0.667 LW
N
787 96 M
784.09 96 L
S
GR
GS
[0.75 0 0 0.75 0 0.25] CT
0.149 GC
2 setlinecap
1 LJ
0.667 LW
N
787 51 M
784.09 51 L
S
GR
GS
[0.75 0 0 0.75 367.99999 139.75] CT
0.149 GC
/Helvetica 13.333 F
GS
[1 0 0 1 0 0] CT
-26 4.5 moveto 
1 -1 scale
(-0.5) t 
GR
GR
GS
[0.75 0 0 0.75 367.99999 106] CT
0.149 GC
/Helvetica 13.333 F
GS
[1 0 0 1 0 0] CT
-9 4.5 moveto 
1 -1 scale
(0) t 
GR
GR
GS
[0.75 0 0 0.75 367.99999 72.25] CT
0.149 GC
/Helvetica 13.333 F
GS
[1 0 0 1 0 0] CT
-21 4.5 moveto 
1 -1 scale
(0.5) t 
GR
GR
GS
[0.75 0 0 0.75 367.99999 38.5] CT
0.149 GC
/Helvetica 13.333 F
GS
[1 0 0 1 0 0] CT
-9 4.5 moveto 
1 -1 scale
(1) t 
GR
GR
GS
[0 -0.75 0.75 0 345.49999 89.12495] CT
0.149 GC
/Helvetica 14.667 F
GS
[1 0 0 1 0 0] CT
-25.5 -4 moveto 
1 -1 scale
(u\(x, tf\)) t 
GR
GR
GS
[0.75 0 0 0.75 481.12546 36.4375] CT
/Helvetica-Bold 14.667 F
GS
[1 0 0 1 0 0] CT
-24 -4 moveto 
1 -1 scale
(tf = 1) t 
GR
GR
GS
[0.75 0 0 0.75 0 0.25] CT
0 0.447 0.741 RC
1 LJ
0.667 LW
N
496 141 M
498.91 79.4 L
501.82 57.781 L
504.73 52.393 L
507.64 51.258 L
510.55 51.056 L
513.46 51.036 L
516.37 51.054 L
519.28 51.086 L
522.19 51.134 L
525.1 51.2 L
528.01 51.289 L
530.92 51.408 L
533.83 51.562 L
536.74 51.762 L
539.65 52.016 L
542.56 52.34 L
545.47 52.75 L
548.38 53.27 L
551.29 53.929 L
554.2 54.769 L
557.11 55.845 L
560.02 57.233 L
562.93 59.041 L
565.84 61.417 L
568.75 64.563 L
571.66 68.754 L
574.57 74.339 L
577.48 81.715 L
580.39 91.237 L
583.3 103.024 L
586.21 116.724 L
589.12 131.385 L
592.03 145.672 L
594.94 158.348 L
597.85 168.659 L
600.76 176.382 L
603.67 181.63 L
606.58 184.63 L
609.49 185.582 L
612.4 184.596 L
615.31 181.699 L
618.22 176.878 L
621.13 170.17 L
624.04 161.791 L
626.95 152.237 L
629.86 142.296 L
632.77 132.897 L
635.68 124.882 L
638.59 118.832 L
641.5 115.046 L
644.41 113.621 L
647.32 114.543 L
650.23 117.709 L
653.14 122.893 L
656.05 129.658 L
658.96 137.312 L
661.87 144.958 L
664.78 151.676 L
667.69 156.714 L
670.6 159.59 L
673.51 160.088 L
676.42 158.225 L
679.33 154.247 L
682.24 148.666 L
685.15 142.269 L
688.06 136.022 L
690.97 130.874 L
693.88 127.562 L
696.79 126.507 L
699.7 127.8 L
702.61 131.195 L
705.52 136.109 L
708.43 141.657 L
711.34 146.805 L
714.25 150.603 L
717.16 152.389 L
720.07 151.891 L
722.98 149.255 L
725.89 145.045 L
728.8 140.172 L
731.71 135.714 L
734.62 132.645 L
737.53 131.609 L
740.44 132.782 L
743.35 135.847 L
746.26 140.03 L
749.17 144.264 L
752.08 147.468 L
754.99 148.843 L
757.9 148.082 L
760.81 145.436 L
763.72 141.671 L
766.63 137.883 L
769.54 135.17 L
772.45 134.289 L
775.36 135.416 L
778.27 137.996 L
781.18 140.719 L
784.09 141.909 L
787 141 L
S
GR
GS
[0.75 0 0 0.75 0 0.25] CT
1 GC
N
113 384 M
404 384 L
404 249 L
113 249 L
cp
f
GR
GS
[0.75 0 0 0.75 0 0.25] CT
0.149 GC
2 setlinecap
1 LJ
0.667 LW
N
113 384 M
404 384 L
S
GR
GS
[0.75 0 0 0.75 0 0.25] CT
0.149 GC
2 setlinecap
1 LJ
0.667 LW
N
113 249 M
404 249 L
S
GR
GS
[0.75 0 0 0.75 0 0.25] CT
0.149 GC
2 setlinecap
1 LJ
0.667 LW
N
113 384 M
113 381.09 L
S
GR
GS
[0.75 0 0 0.75 0 0.25] CT
0.149 GC
2 setlinecap
1 LJ
0.667 LW
N
171.2 384 M
171.2 381.09 L
S
GR
GS
[0.75 0 0 0.75 0 0.25] CT
0.149 GC
2 setlinecap
1 LJ
0.667 LW
N
229.4 384 M
229.4 381.09 L
S
GR
GS
[0.75 0 0 0.75 0 0.25] CT
0.149 GC
2 setlinecap
1 LJ
0.667 LW
N
287.6 384 M
287.6 381.09 L
S
GR
GS
[0.75 0 0 0.75 0 0.25] CT
0.149 GC
2 setlinecap
1 LJ
0.667 LW
N
345.8 384 M
345.8 381.09 L
S
GR
GS
[0.75 0 0 0.75 0 0.25] CT
0.149 GC
2 setlinecap
1 LJ
0.667 LW
N
404 384 M
404 381.09 L
S
GR
GS
[0.75 0 0 0.75 0 0.25] CT
0.149 GC
2 setlinecap
1 LJ
0.667 LW
N
113 249 M
113 251.91 L
S
GR
GS
[0.75 0 0 0.75 0 0.25] CT
0.149 GC
2 setlinecap
1 LJ
0.667 LW
N
171.2 249 M
171.2 251.91 L
S
GR
GS
[0.75 0 0 0.75 0 0.25] CT
0.149 GC
2 setlinecap
1 LJ
0.667 LW
N
229.4 249 M
229.4 251.91 L
S
GR
GS
[0.75 0 0 0.75 0 0.25] CT
0.149 GC
2 setlinecap
1 LJ
0.667 LW
N
287.6 249 M
287.6 251.91 L
S
GR
GS
[0.75 0 0 0.75 0 0.25] CT
0.149 GC
2 setlinecap
1 LJ
0.667 LW
N
345.8 249 M
345.8 251.91 L
S
GR
GS
[0.75 0 0 0.75 0 0.25] CT
0.149 GC
2 setlinecap
1 LJ
0.667 LW
N
404 249 M
404 251.91 L
S
GR
GS
[0.75 0 0 0.75 84.75 292.25001] CT
0.149 GC
/Helvetica 13.333 F
GS
[1 0 0 1 0 0] CT
-4.5 13 moveto 
1 -1 scale
(0) t 
GR
GR
GS
[0.75 0 0 0.75 128.4 292.25001] CT
0.149 GC
/Helvetica 13.333 F
GS
[1 0 0 1 0 0] CT
-10.5 13 moveto 
1 -1 scale
(0.2) t 
GR
GR
GS
[0.75 0 0 0.75 172.05001 292.25001] CT
0.149 GC
/Helvetica 13.333 F
GS
[1 0 0 1 0 0] CT
-10.5 13 moveto 
1 -1 scale
(0.4) t 
GR
GR
GS
[0.75 0 0 0.75 215.7 292.25001] CT
0.149 GC
/Helvetica 13.333 F
GS
[1 0 0 1 0 0] CT
-10.5 13 moveto 
1 -1 scale
(0.6) t 
GR
GR
GS
[0.75 0 0 0.75 259.35001 292.25001] CT
0.149 GC
/Helvetica 13.333 F
GS
[1 0 0 1 0 0] CT
-10.5 13 moveto 
1 -1 scale
(0.8) t 
GR
GR
GS
[0.75 0 0 0.75 303 292.25001] CT
0.149 GC
/Helvetica 13.333 F
GS
[1 0 0 1 0 0] CT
-4.5 13 moveto 
1 -1 scale
(1) t 
GR
GR
GS
[0.75 0 0 0.75 193.87511 305.99999] CT
0.149 GC
/Helvetica 14.667 F
GS
[1 0 0 1 0 0] CT
-4.5 14 moveto 
1 -1 scale
(x) t 
GR
GR
GS
[0.75 0 0 0.75 0 0.25] CT
0.149 GC
2 setlinecap
1 LJ
0.667 LW
N
113 384 M
113 249 L
S
GR
GS
[0.75 0 0 0.75 0 0.25] CT
0.149 GC
2 setlinecap
1 LJ
0.667 LW
N
404 384 M
404 249 L
S
GR
GS
[0.75 0 0 0.75 0 0.25] CT
0.149 GC
2 setlinecap
1 LJ
0.667 LW
N
113 384 M
115.91 384 L
S
GR
GS
[0.75 0 0 0.75 0 0.25] CT
0.149 GC
2 setlinecap
1 LJ
0.667 LW
N
113 350.25 M
115.91 350.25 L
S
GR
GS
[0.75 0 0 0.75 0 0.25] CT
0.149 GC
2 setlinecap
1 LJ
0.667 LW
N
113 316.5 M
115.91 316.5 L
S
GR
GS
[0.75 0 0 0.75 0 0.25] CT
0.149 GC
2 setlinecap
1 LJ
0.667 LW
N
113 282.75 M
115.91 282.75 L
S
GR
GS
[0.75 0 0 0.75 0 0.25] CT
0.149 GC
2 setlinecap
1 LJ
0.667 LW
N
113 249 M
115.91 249 L
S
GR
GS
[0.75 0 0 0.75 0 0.25] CT
0.149 GC
2 setlinecap
1 LJ
0.667 LW
N
404 384 M
401.09 384 L
S
GR
GS
[0.75 0 0 0.75 0 0.25] CT
0.149 GC
2 setlinecap
1 LJ
0.667 LW
N
404 350.25 M
401.09 350.25 L
S
GR
GS
[0.75 0 0 0.75 0 0.25] CT
0.149 GC
2 setlinecap
1 LJ
0.667 LW
N
404 316.5 M
401.09 316.5 L
S
GR
GS
[0.75 0 0 0.75 0 0.25] CT
0.149 GC
2 setlinecap
1 LJ
0.667 LW
N
404 282.75 M
401.09 282.75 L
S
GR
GS
[0.75 0 0 0.75 0 0.25] CT
0.149 GC
2 setlinecap
1 LJ
0.667 LW
N
404 249 M
401.09 249 L
S
GR
GS
[0.75 0 0 0.75 80.75 288.25] CT
0.149 GC
/Helvetica 13.333 F
GS
[1 0 0 1 0 0] CT
-13 4.5 moveto 
1 -1 scale
(-1) t 
GR
GR
GS
[0.75 0 0 0.75 80.75 262.9375] CT
0.149 GC
/Helvetica 13.333 F
GS
[1 0 0 1 0 0] CT
-26 4.5 moveto 
1 -1 scale
(-0.5) t 
GR
GR
GS
[0.75 0 0 0.75 80.75 237.625] CT
0.149 GC
/Helvetica 13.333 F
GS
[1 0 0 1 0 0] CT
-9 4.5 moveto 
1 -1 scale
(0) t 
GR
GR
GS
[0.75 0 0 0.75 80.75 212.3125] CT
0.149 GC
/Helvetica 13.333 F
GS
[1 0 0 1 0 0] CT
-21 4.5 moveto 
1 -1 scale
(0.5) t 
GR
GR
GS
[0.75 0 0 0.75 80.75 187] CT
0.149 GC
/Helvetica 13.333 F
GS
[1 0 0 1 0 0] CT
-9 4.5 moveto 
1 -1 scale
(1) t 
GR
GR
GS
[0 -0.75 0.75 0 58.25 237.62495] CT
0.149 GC
/Helvetica 14.667 F
GS
[1 0 0 1 0 0] CT
-25.5 -4 moveto 
1 -1 scale
(u\(x, tf\)) t 
GR
GR
GS
[0.75 0 0 0.75 193.87518 184.9375] CT
/Helvetica-Bold 14.667 F
GS
[1 0 0 1 0 0] CT
-24 -4 moveto 
1 -1 scale
(tf = 2) t 
GR
GR
GS
[0.75 0 0 0.75 0 0.25] CT
0 0.447 0.741 RC
1 LJ
0.667 LW
N
113 316.5 M
115.91 272.898 L
118.82 255.719 L
121.73 250.735 L
124.64 249.427 L
127.55 249.101 L
130.46 249.026 L
133.37 249.011 L
136.28 249.011 L
139.19 249.015 L
142.1 249.022 L
145.01 249.032 L
147.92 249.045 L
150.83 249.061 L
153.74 249.083 L
156.65 249.11 L
159.56 249.146 L
162.47 249.191 L
165.38 249.25 L
168.29 249.327 L
171.2 249.427 L
174.11 249.562 L
177.02 249.744 L
179.93 249.998 L
182.84 250.361 L
185.75 250.9 L
188.66 251.731 L
191.57 253.073 L
194.48 255.344 L
197.39 259.357 L
200.3 266.603 L
203.21 279.321 L
206.12 299.033 L
209.03 322.744 L
211.94 343.351 L
214.85 357.131 L
217.76 365.123 L
220.67 369.439 L
223.58 371.545 L
226.49 372.19 L
229.4 371.633 L
232.31 369.781 L
235.22 366.202 L
238.13 360.105 L
241.04 350.46 L
243.95 336.67 L
246.86 319.883 L
249.77 303.345 L
252.68 290.183 L
255.59 281.421 L
258.5 276.55 L
261.41 274.802 L
264.32 275.767 L
267.23 279.494 L
270.14 286.335 L
273.05 296.494 L
275.96 309.274 L
278.87 322.652 L
281.78 334.154 L
284.69 342.249 L
287.6 346.606 L
290.51 347.42 L
293.42 344.853 L
296.33 338.964 L
299.24 330.07 L
302.15 319.287 L
305.06 308.583 L
307.97 299.959 L
310.88 294.604 L
313.79 292.88 L
316.7 294.751 L
319.61 299.979 L
322.52 307.899 L
325.43 317.107 L
328.34 325.669 L
331.25 331.876 L
334.16 334.777 L
337.07 334.108 L
339.98 330.077 L
342.89 323.422 L
345.8 315.564 L
348.71 308.366 L
351.62 303.457 L
354.53 301.757 L
357.44 303.464 L
360.35 308.136 L
363.26 314.641 L
366.17 321.273 L
369.08 326.275 L
371.99 328.453 L
374.9 327.4 L
377.81 323.478 L
380.72 317.803 L
383.63 312.05 L
386.54 307.89 L
389.45 306.363 L
392.36 307.565 L
395.27 310.6 L
398.18 313.847 L
401.09 315.854 L
404 316.5 L
S
GR
GS
[0.75 0 0 0.75 0 0.25] CT
1 GC
N
496 384 M
787 384 L
787 249 L
496 249 L
cp
f
GR
GS
[0.75 0 0 0.75 0 0.25] CT
0.149 GC
2 setlinecap
1 LJ
0.667 LW
N
496 384 M
787 384 L
S
GR
GS
[0.75 0 0 0.75 0 0.25] CT
0.149 GC
2 setlinecap
1 LJ
0.667 LW
N
496 249 M
787 249 L
S
GR
GS
[0.75 0 0 0.75 0 0.25] CT
0.149 GC
2 setlinecap
1 LJ
0.667 LW
N
496 384 M
496 381.09 L
S
GR
GS
[0.75 0 0 0.75 0 0.25] CT
0.149 GC
2 setlinecap
1 LJ
0.667 LW
N
554.2 384 M
554.2 381.09 L
S
GR
GS
[0.75 0 0 0.75 0 0.25] CT
0.149 GC
2 setlinecap
1 LJ
0.667 LW
N
612.4 384 M
612.4 381.09 L
S
GR
GS
[0.75 0 0 0.75 0 0.25] CT
0.149 GC
2 setlinecap
1 LJ
0.667 LW
N
670.6 384 M
670.6 381.09 L
S
GR
GS
[0.75 0 0 0.75 0 0.25] CT
0.149 GC
2 setlinecap
1 LJ
0.667 LW
N
728.8 384 M
728.8 381.09 L
S
GR
GS
[0.75 0 0 0.75 0 0.25] CT
0.149 GC
2 setlinecap
1 LJ
0.667 LW
N
787 384 M
787 381.09 L
S
GR
GS
[0.75 0 0 0.75 0 0.25] CT
0.149 GC
2 setlinecap
1 LJ
0.667 LW
N
496 249 M
496 251.91 L
S
GR
GS
[0.75 0 0 0.75 0 0.25] CT
0.149 GC
2 setlinecap
1 LJ
0.667 LW
N
554.2 249 M
554.2 251.91 L
S
GR
GS
[0.75 0 0 0.75 0 0.25] CT
0.149 GC
2 setlinecap
1 LJ
0.667 LW
N
612.4 249 M
612.4 251.91 L
S
GR
GS
[0.75 0 0 0.75 0 0.25] CT
0.149 GC
2 setlinecap
1 LJ
0.667 LW
N
670.6 249 M
670.6 251.91 L
S
GR
GS
[0.75 0 0 0.75 0 0.25] CT
0.149 GC
2 setlinecap
1 LJ
0.667 LW
N
728.8 249 M
728.8 251.91 L
S
GR
GS
[0.75 0 0 0.75 0 0.25] CT
0.149 GC
2 setlinecap
1 LJ
0.667 LW
N
787 249 M
787 251.91 L
S
GR
GS
[0.75 0 0 0.75 372 292.25001] CT
0.149 GC
/Helvetica 13.333 F
GS
[1 0 0 1 0 0] CT
-4.5 13 moveto 
1 -1 scale
(0) t 
GR
GR
GS
[0.75 0 0 0.75 415.65001 292.25001] CT
0.149 GC
/Helvetica 13.333 F
GS
[1 0 0 1 0 0] CT
-10.5 13 moveto 
1 -1 scale
(0.2) t 
GR
GR
GS
[0.75 0 0 0.75 459.30002 292.25001] CT
0.149 GC
/Helvetica 13.333 F
GS
[1 0 0 1 0 0] CT
-10.5 13 moveto 
1 -1 scale
(0.4) t 
GR
GR
GS
[0.75 0 0 0.75 502.95003 292.25001] CT
0.149 GC
/Helvetica 13.333 F
GS
[1 0 0 1 0 0] CT
-10.5 13 moveto 
1 -1 scale
(0.6) t 
GR
GR
GS
[0.75 0 0 0.75 546.59999 292.25001] CT
0.149 GC
/Helvetica 13.333 F
GS
[1 0 0 1 0 0] CT
-10.5 13 moveto 
1 -1 scale
(0.8) t 
GR
GR
GS
[0.75 0 0 0.75 590.25 292.25001] CT
0.149 GC
/Helvetica 13.333 F
GS
[1 0 0 1 0 0] CT
-4.5 13 moveto 
1 -1 scale
(1) t 
GR
GR
GS
[0.75 0 0 0.75 481.12509 305.99999] CT
0.149 GC
/Helvetica 14.667 F
GS
[1 0 0 1 0 0] CT
-4.5 14 moveto 
1 -1 scale
(x) t 
GR
GR
GS
[0.75 0 0 0.75 0 0.25] CT
0.149 GC
2 setlinecap
1 LJ
0.667 LW
N
496 384 M
496 249 L
S
GR
GS
[0.75 0 0 0.75 0 0.25] CT
0.149 GC
2 setlinecap
1 LJ
0.667 LW
N
787 384 M
787 249 L
S
GR
GS
[0.75 0 0 0.75 0 0.25] CT
0.149 GC
2 setlinecap
1 LJ
0.667 LW
N
496 384 M
498.91 384 L
S
GR
GS
[0.75 0 0 0.75 0 0.25] CT
0.149 GC
2 setlinecap
1 LJ
0.667 LW
N
496 350.25 M
498.91 350.25 L
S
GR
GS
[0.75 0 0 0.75 0 0.25] CT
0.149 GC
2 setlinecap
1 LJ
0.667 LW
N
496 316.5 M
498.91 316.5 L
S
GR
GS
[0.75 0 0 0.75 0 0.25] CT
0.149 GC
2 setlinecap
1 LJ
0.667 LW
N
496 282.75 M
498.91 282.75 L
S
GR
GS
[0.75 0 0 0.75 0 0.25] CT
0.149 GC
2 setlinecap
1 LJ
0.667 LW
N
496 249 M
498.91 249 L
S
GR
GS
[0.75 0 0 0.75 0 0.25] CT
0.149 GC
2 setlinecap
1 LJ
0.667 LW
N
787 384 M
784.09 384 L
S
GR
GS
[0.75 0 0 0.75 0 0.25] CT
0.149 GC
2 setlinecap
1 LJ
0.667 LW
N
787 350.25 M
784.09 350.25 L
S
GR
GS
[0.75 0 0 0.75 0 0.25] CT
0.149 GC
2 setlinecap
1 LJ
0.667 LW
N
787 316.5 M
784.09 316.5 L
S
GR
GS
[0.75 0 0 0.75 0 0.25] CT
0.149 GC
2 setlinecap
1 LJ
0.667 LW
N
787 282.75 M
784.09 282.75 L
S
GR
GS
[0.75 0 0 0.75 0 0.25] CT
0.149 GC
2 setlinecap
1 LJ
0.667 LW
N
787 249 M
784.09 249 L
S
GR
GS
[0.75 0 0 0.75 367.99999 288.25] CT
0.149 GC
/Helvetica 13.333 F
GS
[1 0 0 1 0 0] CT
-13 4.5 moveto 
1 -1 scale
(-1) t 
GR
GR
GS
[0.75 0 0 0.75 367.99999 262.9375] CT
0.149 GC
/Helvetica 13.333 F
GS
[1 0 0 1 0 0] CT
-26 4.5 moveto 
1 -1 scale
(-0.5) t 
GR
GR
GS
[0.75 0 0 0.75 367.99999 237.625] CT
0.149 GC
/Helvetica 13.333 F
GS
[1 0 0 1 0 0] CT
-9 4.5 moveto 
1 -1 scale
(0) t 
GR
GR
GS
[0.75 0 0 0.75 367.99999 212.3125] CT
0.149 GC
/Helvetica 13.333 F
GS
[1 0 0 1 0 0] CT
-21 4.5 moveto 
1 -1 scale
(0.5) t 
GR
GR
GS
[0.75 0 0 0.75 367.99999 187] CT
0.149 GC
/Helvetica 13.333 F
GS
[1 0 0 1 0 0] CT
-9 4.5 moveto 
1 -1 scale
(1) t 
GR
GR
GS
[0 -0.75 0.75 0 345.49999 237.62495] CT
0.149 GC
/Helvetica 14.667 F
GS
[1 0 0 1 0 0] CT
-25.5 -4 moveto 
1 -1 scale
(u\(x, tf\)) t 
GR
GR
GS
[0.75 0 0 0.75 481.12546 184.9375] CT
/Helvetica-Bold 14.667 F
GS
[1 0 0 1 0 0] CT
-24 -4 moveto 
1 -1 scale
(tf = 3) t 
GR
GR
GS
[0.75 0 0 0.75 0 0.25] CT
0 0.447 0.741 RC
1 LJ
0.667 LW
N
496 316.5 M
498.91 273.417 L
501.82 256.083 L
504.73 250.917 L
507.64 249.506 L
510.55 249.131 L
513.46 249.034 L
516.37 249.009 L
519.28 249.003 L
522.19 249.003 L
525.1 249.003 L
528.01 249.005 L
530.92 249.006 L
533.83 249.009 L
536.74 249.012 L
539.65 249.016 L
542.56 249.021 L
545.47 249.027 L
548.38 249.036 L
551.29 249.047 L
554.2 249.062 L
557.11 249.083 L
560.02 249.112 L
562.93 249.153 L
565.84 249.217 L
568.75 249.318 L
571.66 249.491 L
574.57 249.815 L
577.48 250.48 L
580.39 251.989 L
583.3 255.719 L
586.21 265.299 L
589.12 287.982 L
592.03 325.702 L
594.94 356.931 L
597.85 372.016 L
600.76 378.064 L
603.67 380.445 L
606.58 381.377 L
609.49 381.647 L
612.4 381.482 L
615.31 380.822 L
618.22 379.302 L
621.13 375.95 L
624.04 368.464 L
626.95 352.411 L
629.86 324.293 L
632.77 293.074 L
635.68 272.482 L
638.59 262.424 L
641.5 258.149 L
644.41 256.796 L
647.32 257.358 L
650.23 260.055 L
653.14 266.314 L
656.05 279 L
658.96 300.785 L
661.87 327.764 L
664.78 349.446 L
667.69 361.839 L
670.6 367.343 L
673.51 368.401 L
676.42 365.714 L
679.33 358.34 L
682.24 344.342 L
685.15 323.491 L
688.06 301.203 L
690.97 284.664 L
693.88 275.736 L
696.79 273.003 L
699.7 275.49 L
702.61 283.563 L
705.52 297.901 L
708.43 316.722 L
711.34 334.496 L
714.25 346.475 L
717.16 351.722 L
720.07 350.849 L
722.98 344.049 L
725.89 331.518 L
728.8 315.472 L
731.71 300.647 L
734.62 290.983 L
737.53 287.644 L
740.44 290.48 L
743.35 299.082 L
746.26 311.936 L
749.17 325.421 L
752.08 335.421 L
754.99 339.753 L
757.9 338.04 L
760.81 330.786 L
763.72 319.709 L
766.63 308.18 L
769.54 299.739 L
772.45 296.142 L
775.36 297.272 L
778.27 301.776 L
781.18 307.514 L
784.09 312.561 L
787 316.5 L
S
GR
GS
[0.75 0 0 0.75 0 0.25] CT
1 GC
N
113 582 M
404 582 L
404 448 L
113 448 L
cp
f
GR
GS
[0.75 0 0 0.75 0 0.25] CT
0.149 GC
2 setlinecap
1 LJ
0.667 LW
N
113 582 M
404 582 L
S
GR
GS
[0.75 0 0 0.75 0 0.25] CT
0.149 GC
2 setlinecap
1 LJ
0.667 LW
N
113 448 M
404 448 L
S
GR
GS
[0.75 0 0 0.75 0 0.25] CT
0.149 GC
2 setlinecap
1 LJ
0.667 LW
N
113 582 M
113 579.09 L
S
GR
GS
[0.75 0 0 0.75 0 0.25] CT
0.149 GC
2 setlinecap
1 LJ
0.667 LW
N
171.2 582 M
171.2 579.09 L
S
GR
GS
[0.75 0 0 0.75 0 0.25] CT
0.149 GC
2 setlinecap
1 LJ
0.667 LW
N
229.4 582 M
229.4 579.09 L
S
GR
GS
[0.75 0 0 0.75 0 0.25] CT
0.149 GC
2 setlinecap
1 LJ
0.667 LW
N
287.6 582 M
287.6 579.09 L
S
GR
GS
[0.75 0 0 0.75 0 0.25] CT
0.149 GC
2 setlinecap
1 LJ
0.667 LW
N
345.8 582 M
345.8 579.09 L
S
GR
GS
[0.75 0 0 0.75 0 0.25] CT
0.149 GC
2 setlinecap
1 LJ
0.667 LW
N
404 582 M
404 579.09 L
S
GR
GS
[0.75 0 0 0.75 0 0.25] CT
0.149 GC
2 setlinecap
1 LJ
0.667 LW
N
113 448 M
113 450.91 L
S
GR
GS
[0.75 0 0 0.75 0 0.25] CT
0.149 GC
2 setlinecap
1 LJ
0.667 LW
N
171.2 448 M
171.2 450.91 L
S
GR
GS
[0.75 0 0 0.75 0 0.25] CT
0.149 GC
2 setlinecap
1 LJ
0.667 LW
N
229.4 448 M
229.4 450.91 L
S
GR
GS
[0.75 0 0 0.75 0 0.25] CT
0.149 GC
2 setlinecap
1 LJ
0.667 LW
N
287.6 448 M
287.6 450.91 L
S
GR
GS
[0.75 0 0 0.75 0 0.25] CT
0.149 GC
2 setlinecap
1 LJ
0.667 LW
N
345.8 448 M
345.8 450.91 L
S
GR
GS
[0.75 0 0 0.75 0 0.25] CT
0.149 GC
2 setlinecap
1 LJ
0.667 LW
N
404 448 M
404 450.91 L
S
GR
GS
[0.75 0 0 0.75 84.75 440.74998] CT
0.149 GC
/Helvetica 13.333 F
GS
[1 0 0 1 0 0] CT
-4.5 13 moveto 
1 -1 scale
(0) t 
GR
GR
GS
[0.75 0 0 0.75 128.4 440.74998] CT
0.149 GC
/Helvetica 13.333 F
GS
[1 0 0 1 0 0] CT
-10.5 13 moveto 
1 -1 scale
(0.2) t 
GR
GR
GS
[0.75 0 0 0.75 172.05001 440.74998] CT
0.149 GC
/Helvetica 13.333 F
GS
[1 0 0 1 0 0] CT
-10.5 13 moveto 
1 -1 scale
(0.4) t 
GR
GR
GS
[0.75 0 0 0.75 215.7 440.74998] CT
0.149 GC
/Helvetica 13.333 F
GS
[1 0 0 1 0 0] CT
-10.5 13 moveto 
1 -1 scale
(0.6) t 
GR
GR
GS
[0.75 0 0 0.75 259.35001 440.74998] CT
0.149 GC
/Helvetica 13.333 F
GS
[1 0 0 1 0 0] CT
-10.5 13 moveto 
1 -1 scale
(0.8) t 
GR
GR
GS
[0.75 0 0 0.75 303 440.74998] CT
0.149 GC
/Helvetica 13.333 F
GS
[1 0 0 1 0 0] CT
-4.5 13 moveto 
1 -1 scale
(1) t 
GR
GR
GS
[0.75 0 0 0.75 193.87511 454.50002] CT
0.149 GC
/Helvetica 14.667 F
GS
[1 0 0 1 0 0] CT
-4.5 14 moveto 
1 -1 scale
(x) t 
GR
GR
GS
[0.75 0 0 0.75 0 0.25] CT
0.149 GC
2 setlinecap
1 LJ
0.667 LW
N
113 582 M
113 448 L
S
GR
GS
[0.75 0 0 0.75 0 0.25] CT
0.149 GC
2 setlinecap
1 LJ
0.667 LW
N
404 582 M
404 448 L
S
GR
GS
[0.75 0 0 0.75 0 0.25] CT
0.149 GC
2 setlinecap
1 LJ
0.667 LW
N
113 582 M
115.91 582 L
S
GR
GS
[0.75 0 0 0.75 0 0.25] CT
0.149 GC
2 setlinecap
1 LJ
0.667 LW
N
113 548.5 M
115.91 548.5 L
S
GR
GS
[0.75 0 0 0.75 0 0.25] CT
0.149 GC
2 setlinecap
1 LJ
0.667 LW
N
113 515 M
115.91 515 L
S
GR
GS
[0.75 0 0 0.75 0 0.25] CT
0.149 GC
2 setlinecap
1 LJ
0.667 LW
N
113 481.5 M
115.91 481.5 L
S
GR
GS
[0.75 0 0 0.75 0 0.25] CT
0.149 GC
2 setlinecap
1 LJ
0.667 LW
N
113 448 M
115.91 448 L
S
GR
GS
[0.75 0 0 0.75 0 0.25] CT
0.149 GC
2 setlinecap
1 LJ
0.667 LW
N
404 582 M
401.09 582 L
S
GR
GS
[0.75 0 0 0.75 0 0.25] CT
0.149 GC
2 setlinecap
1 LJ
0.667 LW
N
404 548.5 M
401.09 548.5 L
S
GR
GS
[0.75 0 0 0.75 0 0.25] CT
0.149 GC
2 setlinecap
1 LJ
0.667 LW
N
404 515 M
401.09 515 L
S
GR
GS
[0.75 0 0 0.75 0 0.25] CT
0.149 GC
2 setlinecap
1 LJ
0.667 LW
N
404 481.5 M
401.09 481.5 L
S
GR
GS
[0.75 0 0 0.75 0 0.25] CT
0.149 GC
2 setlinecap
1 LJ
0.667 LW
N
404 448 M
401.09 448 L
S
GR
GS
[0.75 0 0 0.75 80.75 436.75] CT
0.149 GC
/Helvetica 13.333 F
GS
[1 0 0 1 0 0] CT
-13 4.5 moveto 
1 -1 scale
(-1) t 
GR
GR
GS
[0.75 0 0 0.75 80.75 411.625] CT
0.149 GC
/Helvetica 13.333 F
GS
[1 0 0 1 0 0] CT
-26 4.5 moveto 
1 -1 scale
(-0.5) t 
GR
GR
GS
[0.75 0 0 0.75 80.75 386.5] CT
0.149 GC
/Helvetica 13.333 F
GS
[1 0 0 1 0 0] CT
-9 4.5 moveto 
1 -1 scale
(0) t 
GR
GR
GS
[0.75 0 0 0.75 80.75 361.375] CT
0.149 GC
/Helvetica 13.333 F
GS
[1 0 0 1 0 0] CT
-21 4.5 moveto 
1 -1 scale
(0.5) t 
GR
GR
GS
[0.75 0 0 0.75 80.75 336.25] CT
0.149 GC
/Helvetica 13.333 F
GS
[1 0 0 1 0 0] CT
-9 4.5 moveto 
1 -1 scale
(1) t 
GR
GR
GS
[0 -0.75 0.75 0 58.25 386.49995] CT
0.149 GC
/Helvetica 14.667 F
GS
[1 0 0 1 0 0] CT
-25.5 -4 moveto 
1 -1 scale
(u\(x, tf\)) t 
GR
GR
GS
[0.75 0 0 0.75 193.87518 334.1875] CT
/Helvetica-Bold 14.667 F
GS
[1 0 0 1 0 0] CT
-24 -4 moveto 
1 -1 scale
(tf = 4) t 
GR
GR
GS
[0.75 0 0 0.75 0 0.25] CT
0 0.447 0.741 RC
1 LJ
0.667 LW
N
113 515 M
115.91 472.348 L
118.82 455.111 L
121.73 449.945 L
124.64 448.522 L
127.55 448.139 L
130.46 448.037 L
133.37 448.01 L
136.28 448.003 L
139.19 448.001 L
142.1 448.001 L
145.01 448.001 L
147.92 448.001 L
150.83 448.001 L
153.74 448.002 L
156.65 448.002 L
159.56 448.003 L
162.47 448.004 L
165.38 448.005 L
168.29 448.007 L
171.2 448.009 L
174.11 448.012 L
177.02 448.017 L
179.93 448.024 L
182.84 448.036 L
185.75 448.057 L
188.66 448.1 L
191.57 448.199 L
194.48 448.459 L
197.39 449.216 L
200.3 451.589 L
203.21 459.172 L
206.12 481.393 L
209.03 525.992 L
211.94 561.13 L
214.85 575.093 L
217.76 579.596 L
220.67 581.006 L
223.58 581.453 L
226.49 581.575 L
229.4 581.538 L
232.31 581.326 L
235.22 580.731 L
238.13 579.057 L
241.04 574.142 L
243.95 559.949 L
246.86 526.367 L
249.77 484.255 L
252.68 461.645 L
255.59 453.313 L
258.5 450.558 L
261.41 449.791 L
264.32 449.98 L
267.23 451.265 L
270.14 455.058 L
273.05 465.54 L
275.96 491.039 L
278.87 531.211 L
281.78 560.082 L
284.69 572.466 L
287.6 576.754 L
290.51 577.584 L
293.42 576.033 L
296.33 570.652 L
299.24 556.69 L
302.15 527.556 L
305.06 491.345 L
307.97 468.602 L
310.88 459.102 L
313.79 456.52 L
316.7 458.321 L
319.61 465.774 L
322.52 483.501 L
325.43 514.044 L
328.34 544.191 L
331.25 561.183 L
334.16 567.469 L
337.07 566.901 L
339.98 559.496 L
342.89 542.14 L
345.8 514.548 L
348.71 488.299 L
351.62 473.326 L
354.53 468.545 L
357.44 471.755 L
360.35 483.697 L
363.26 505.267 L
366.17 530.046 L
369.08 547.369 L
371.99 554.354 L
374.9 552.299 L
377.81 541.299 L
380.72 521.89 L
383.63 500.266 L
386.54 484.861 L
389.45 477.947 L
392.36 477.955 L
395.27 483.252 L
398.18 492.359 L
401.09 503.439 L
404 515 L
S
GR
GS
[0.75 0 0 0.75 0 0.25] CT
1 GC
N
496 582 M
787 582 L
787 448 L
496 448 L
cp
f
GR
GS
[0.75 0 0 0.75 0 0.25] CT
0.149 GC
2 setlinecap
1 LJ
0.667 LW
N
496 582 M
787 582 L
S
GR
GS
[0.75 0 0 0.75 0 0.25] CT
0.149 GC
2 setlinecap
1 LJ
0.667 LW
N
496 448 M
787 448 L
S
GR
GS
[0.75 0 0 0.75 0 0.25] CT
0.149 GC
2 setlinecap
1 LJ
0.667 LW
N
496 582 M
496 579.09 L
S
GR
GS
[0.75 0 0 0.75 0 0.25] CT
0.149 GC
2 setlinecap
1 LJ
0.667 LW
N
554.2 582 M
554.2 579.09 L
S
GR
GS
[0.75 0 0 0.75 0 0.25] CT
0.149 GC
2 setlinecap
1 LJ
0.667 LW
N
612.4 582 M
612.4 579.09 L
S
GR
GS
[0.75 0 0 0.75 0 0.25] CT
0.149 GC
2 setlinecap
1 LJ
0.667 LW
N
670.6 582 M
670.6 579.09 L
S
GR
GS
[0.75 0 0 0.75 0 0.25] CT
0.149 GC
2 setlinecap
1 LJ
0.667 LW
N
728.8 582 M
728.8 579.09 L
S
GR
GS
[0.75 0 0 0.75 0 0.25] CT
0.149 GC
2 setlinecap
1 LJ
0.667 LW
N
787 582 M
787 579.09 L
S
GR
GS
[0.75 0 0 0.75 0 0.25] CT
0.149 GC
2 setlinecap
1 LJ
0.667 LW
N
496 448 M
496 450.91 L
S
GR
GS
[0.75 0 0 0.75 0 0.25] CT
0.149 GC
2 setlinecap
1 LJ
0.667 LW
N
554.2 448 M
554.2 450.91 L
S
GR
GS
[0.75 0 0 0.75 0 0.25] CT
0.149 GC
2 setlinecap
1 LJ
0.667 LW
N
612.4 448 M
612.4 450.91 L
S
GR
GS
[0.75 0 0 0.75 0 0.25] CT
0.149 GC
2 setlinecap
1 LJ
0.667 LW
N
670.6 448 M
670.6 450.91 L
S
GR
GS
[0.75 0 0 0.75 0 0.25] CT
0.149 GC
2 setlinecap
1 LJ
0.667 LW
N
728.8 448 M
728.8 450.91 L
S
GR
GS
[0.75 0 0 0.75 0 0.25] CT
0.149 GC
2 setlinecap
1 LJ
0.667 LW
N
787 448 M
787 450.91 L
S
GR
GS
[0.75 0 0 0.75 372 440.74998] CT
0.149 GC
/Helvetica 13.333 F
GS
[1 0 0 1 0 0] CT
-4.5 13 moveto 
1 -1 scale
(0) t 
GR
GR
GS
[0.75 0 0 0.75 415.65001 440.74998] CT
0.149 GC
/Helvetica 13.333 F
GS
[1 0 0 1 0 0] CT
-10.5 13 moveto 
1 -1 scale
(0.2) t 
GR
GR
GS
[0.75 0 0 0.75 459.30002 440.74998] CT
0.149 GC
/Helvetica 13.333 F
GS
[1 0 0 1 0 0] CT
-10.5 13 moveto 
1 -1 scale
(0.4) t 
GR
GR
GS
[0.75 0 0 0.75 502.95003 440.74998] CT
0.149 GC
/Helvetica 13.333 F
GS
[1 0 0 1 0 0] CT
-10.5 13 moveto 
1 -1 scale
(0.6) t 
GR
GR
GS
[0.75 0 0 0.75 546.59999 440.74998] CT
0.149 GC
/Helvetica 13.333 F
GS
[1 0 0 1 0 0] CT
-10.5 13 moveto 
1 -1 scale
(0.8) t 
GR
GR
GS
[0.75 0 0 0.75 590.25 440.74998] CT
0.149 GC
/Helvetica 13.333 F
GS
[1 0 0 1 0 0] CT
-4.5 13 moveto 
1 -1 scale
(1) t 
GR
GR
GS
[0.75 0 0 0.75 481.12509 454.50002] CT
0.149 GC
/Helvetica 14.667 F
GS
[1 0 0 1 0 0] CT
-4.5 14 moveto 
1 -1 scale
(x) t 
GR
GR
GS
[0.75 0 0 0.75 0 0.25] CT
0.149 GC
2 setlinecap
1 LJ
0.667 LW
N
496 582 M
496 448 L
S
GR
GS
[0.75 0 0 0.75 0 0.25] CT
0.149 GC
2 setlinecap
1 LJ
0.667 LW
N
787 582 M
787 448 L
S
GR
GS
[0.75 0 0 0.75 0 0.25] CT
0.149 GC
2 setlinecap
1 LJ
0.667 LW
N
496 582 M
498.91 582 L
S
GR
GS
[0.75 0 0 0.75 0 0.25] CT
0.149 GC
2 setlinecap
1 LJ
0.667 LW
N
496 548.5 M
498.91 548.5 L
S
GR
GS
[0.75 0 0 0.75 0 0.25] CT
0.149 GC
2 setlinecap
1 LJ
0.667 LW
N
496 515 M
498.91 515 L
S
GR
GS
[0.75 0 0 0.75 0 0.25] CT
0.149 GC
2 setlinecap
1 LJ
0.667 LW
N
496 481.5 M
498.91 481.5 L
S
GR
GS
[0.75 0 0 0.75 0 0.25] CT
0.149 GC
2 setlinecap
1 LJ
0.667 LW
N
496 448 M
498.91 448 L
S
GR
GS
[0.75 0 0 0.75 0 0.25] CT
0.149 GC
2 setlinecap
1 LJ
0.667 LW
N
787 582 M
784.09 582 L
S
GR
GS
[0.75 0 0 0.75 0 0.25] CT
0.149 GC
2 setlinecap
1 LJ
0.667 LW
N
787 548.5 M
784.09 548.5 L
S
GR
GS
[0.75 0 0 0.75 0 0.25] CT
0.149 GC
2 setlinecap
1 LJ
0.667 LW
N
787 515 M
784.09 515 L
S
GR
GS
[0.75 0 0 0.75 0 0.25] CT
0.149 GC
2 setlinecap
1 LJ
0.667 LW
N
787 481.5 M
784.09 481.5 L
S
GR
GS
[0.75 0 0 0.75 0 0.25] CT
0.149 GC
2 setlinecap
1 LJ
0.667 LW
N
787 448 M
784.09 448 L
S
GR
GS
[0.75 0 0 0.75 367.99999 436.75] CT
0.149 GC
/Helvetica 13.333 F
GS
[1 0 0 1 0 0] CT
-13 4.5 moveto 
1 -1 scale
(-1) t 
GR
GR
GS
[0.75 0 0 0.75 367.99999 411.625] CT
0.149 GC
/Helvetica 13.333 F
GS
[1 0 0 1 0 0] CT
-26 4.5 moveto 
1 -1 scale
(-0.5) t 
GR
GR
GS
[0.75 0 0 0.75 367.99999 386.5] CT
0.149 GC
/Helvetica 13.333 F
GS
[1 0 0 1 0 0] CT
-9 4.5 moveto 
1 -1 scale
(0) t 
GR
GR
GS
[0.75 0 0 0.75 367.99999 361.375] CT
0.149 GC
/Helvetica 13.333 F
GS
[1 0 0 1 0 0] CT
-21 4.5 moveto 
1 -1 scale
(0.5) t 
GR
GR
GS
[0.75 0 0 0.75 367.99999 336.25] CT
0.149 GC
/Helvetica 13.333 F
GS
[1 0 0 1 0 0] CT
-9 4.5 moveto 
1 -1 scale
(1) t 
GR
GR
GS
[0 -0.75 0.75 0 345.49999 386.49995] CT
0.149 GC
/Helvetica 14.667 F
GS
[1 0 0 1 0 0] CT
-25.5 -4 moveto 
1 -1 scale
(u\(x, tf\)) t 
GR
GR
GS
[0.75 0 0 0.75 481.12546 334.1875] CT
/Helvetica-Bold 14.667 F
GS
[1 0 0 1 0 0] CT
-24 -4 moveto 
1 -1 scale
(tf = 5) t 
GR
GR
GS
[0.75 0 0 0.75 0 0.25] CT
0 0.447 0.741 RC
1 LJ
0.667 LW
N
496 515 M
498.91 472.373 L
501.82 455.129 L
504.73 449.955 L
507.64 448.527 L
510.55 448.141 L
513.46 448.038 L
516.37 448.01 L
519.28 448.003 L
522.19 448.001 L
525.1 448 L
528.01 448 L
530.92 448 L
533.83 448 L
536.74 448 L
539.65 448 L
542.56 448 L
545.47 448.001 L
548.38 448.001 L
551.29 448.001 L
554.2 448.001 L
557.11 448.002 L
560.02 448.003 L
562.93 448.004 L
565.84 448.007 L
568.75 448.013 L
571.66 448.03 L
574.57 448.082 L
577.48 448.249 L
580.39 448.823 L
583.3 450.843 L
586.21 457.867 L
589.12 479.918 L
592.03 526.844 L
594.94 562.87 L
597.85 576.315 L
600.76 580.342 L
603.67 581.489 L
606.58 581.813 L
609.49 581.896 L
612.4 581.888 L
615.31 581.786 L
618.22 581.433 L
621.13 580.249 L
624.04 576.217 L
626.95 563.029 L
629.86 528.014 L
632.77 481.465 L
635.68 458.742 L
638.59 451.301 L
641.5 449.124 L
644.41 448.562 L
647.32 448.633 L
650.23 449.416 L
653.14 452.161 L
656.05 461.152 L
658.96 487.058 L
661.87 533.924 L
664.78 565.006 L
667.69 576.424 L
670.6 579.855 L
673.51 580.528 L
676.42 579.594 L
679.33 575.682 L
682.24 563.29 L
685.15 531.243 L
688.06 486.269 L
690.97 461.737 L
693.88 453.206 L
696.79 451.08 L
699.7 452.179 L
702.61 457.908 L
705.52 475.091 L
708.43 512.909 L
711.34 551.989 L
714.25 570.278 L
717.16 576.027 L
720.07 575.881 L
722.98 569.926 L
725.89 552.119 L
728.8 515.454 L
731.71 479.111 L
734.62 461.828 L
737.53 456.915 L
740.44 459.371 L
743.35 471.206 L
746.26 499.016 L
749.17 536.413 L
752.08 559.905 L
754.99 568.15 L
757.9 566.504 L
760.81 554.192 L
763.72 526.645 L
766.63 492.177 L
769.54 470.344 L
772.45 461.555 L
775.36 460.113 L
778.27 463.7 L
781.18 473.08 L
784.09 490.378 L
787 515 L
S
GR
%%Trailer
%%Pages: 1
%%EOF
