\relax 
\providecommand\hyper@newdestlabel[2]{}
\providecommand\HyperFirstAtBeginDocument{\AtBeginDocument}
\HyperFirstAtBeginDocument{\ifx\hyper@anchor\@undefined
\global\let\oldcontentsline\contentsline
\gdef\contentsline#1#2#3#4{\oldcontentsline{#1}{#2}{#3}}
\global\let\oldnewlabel\newlabel
\gdef\newlabel#1#2{\newlabelxx{#1}#2}
\gdef\newlabelxx#1#2#3#4#5#6{\oldnewlabel{#1}{{#2}{#3}}}
\AtEndDocument{\ifx\hyper@anchor\@undefined
\let\contentsline\oldcontentsline
\let\newlabel\oldnewlabel
\fi}
\fi}
\global\let\hyper@last\relax 
\gdef\HyperFirstAtBeginDocument#1{#1}
\providecommand\HyField@AuxAddToFields[1]{}
\providecommand\HyField@AuxAddToCoFields[2]{}
\select@language{english}
\@writefile{toc}{\select@language{english}}
\@writefile{lof}{\select@language{english}}
\@writefile{lot}{\select@language{english}}
\pgfsyspdfmark {pgfid2}{0}{0}
\pgfsyspdfmark {pgfid1}{6577079}{47493192}
\@writefile{toc}{\contentsline {section}{\numberline {1}Introduction}{1}{section.1}}
\@writefile{toc}{\contentsline {section}{\numberline {2}Implementation and order tests methods of the one-dimensional heat equation}{1}{section.2}}
\newlabel{sec:intro}{{2}{1}{Implementation and order tests methods of the one-dimensional heat equation}{section.2}{}}
\@writefile{toc}{\contentsline {subsection}{\numberline {2.1}Explicit Euler method}{2}{subsection.2.1}}
\@writefile{toc}{\contentsline {subsubsection}{\numberline {2.1.1}Implementation}{2}{subsubsection.2.1.1}}
\@writefile{lol}{\contentsline {lstlisting}{../explicit\textunderscore euler.m}{2}{lstlisting.-1}}
\@writefile{toc}{\contentsline {subsubsection}{\numberline {2.1.2}Correctness via order tests and example}{2}{subsubsection.2.1.2}}
\@writefile{lof}{\contentsline {figure}{\numberline {1}{\ignorespaces The convergence order of the explicit Euler method. First order in time, second order in space.\relax }}{3}{figure.caption.2}}
\providecommand*\caption@xref[2]{\@setref\relax\@undefined{#1}}
\newlabel{fig:conveuler}{{1}{3}{The convergence order of the explicit Euler method. First order in time, second order in space.\relax }{figure.caption.2}{}}
\@writefile{toc}{\contentsline {subsection}{\numberline {2.2}Implicit Euler method}{3}{subsection.2.2}}
\@writefile{toc}{\contentsline {subsubsection}{\numberline {2.2.1}Code}{3}{subsubsection.2.2.1}}
\@writefile{lol}{\contentsline {lstlisting}{../implicit\textunderscore euler.m}{3}{lstlisting.-2}}
\@writefile{lof}{\contentsline {figure}{\numberline {2}{\ignorespaces The convergence order of the implicit Euler method. First order in time, second order in space.\relax }}{4}{figure.caption.3}}
\newlabel{fig:order_test_implicit_euler}{{2}{4}{The convergence order of the implicit Euler method. First order in time, second order in space.\relax }{figure.caption.3}{}}
\@writefile{toc}{\contentsline {subsubsection}{\numberline {2.2.2}Correctness via order tests and example}{4}{subsubsection.2.2.2}}
\@writefile{toc}{\contentsline {subsection}{\numberline {2.3}Crank-Nicolson method}{4}{subsection.2.3}}
\@writefile{toc}{\contentsline {subsubsection}{\numberline {2.3.1}Implementation}{4}{subsubsection.2.3.1}}
\@writefile{lol}{\contentsline {lstlisting}{../crank\textunderscore nicolson.m}{4}{lstlisting.-3}}
\@writefile{lof}{\contentsline {figure}{\numberline {3}{\ignorespaces The convergence orders of Crank-Nicolson in space and time. Both are second order.\relax }}{5}{figure.caption.4}}
\newlabel{fig:convcn}{{3}{5}{The convergence orders of Crank-Nicolson in space and time. Both are second order.\relax }{figure.caption.4}{}}
\@writefile{toc}{\contentsline {subsubsection}{\numberline {2.3.2}Correctness via order tests and example}{5}{subsubsection.2.3.2}}
\@writefile{lof}{\contentsline {figure}{\numberline {4}{\ignorespaces The convergence order of Crank-Nicolson when we keep $\mu $ constant. This yields first order in time and second in space.\relax }}{6}{figure.caption.5}}
\newlabel{fig:cnmu}{{4}{6}{The convergence order of Crank-Nicolson when we keep $\mu $ constant. This yields first order in time and second in space.\relax }{figure.caption.5}{}}
\@writefile{toc}{\contentsline {subsection}{\numberline {2.4}Thomas algorithm}{6}{subsection.2.4}}
\@writefile{toc}{\contentsline {section}{\numberline {3}Application of implementation to two concrete examples}{6}{section.3}}
\@writefile{toc}{\contentsline {subsection}{\numberline {3.1}Application of the explicit Euler method}{6}{subsection.3.1}}
\@writefile{lof}{\contentsline {figure}{\numberline {5}{\ignorespaces Comparison execution time Thomas algorithm and backslash operator of MATLAB.\relax }}{7}{figure.caption.6}}
\newlabel{fig:comparison_performance_thomas}{{5}{7}{Comparison execution time Thomas algorithm and backslash operator of MATLAB.\relax }{figure.caption.6}{}}
\@writefile{lof}{\contentsline {figure}{\numberline {6}{\ignorespaces The solution the heat equation on times $t_F=0.05$ and $t_F = 0.5$ seconds for $\mu =0.4$. The solution is stable and converges nicely.\relax }}{7}{figure.caption.7}}
\newlabel{fig:opgave2}{{6}{7}{The solution the heat equation on times $t_F=0.05$ and $t_F = 0.5$ seconds for $\mu =0.4$. The solution is stable and converges nicely.\relax }{figure.caption.7}{}}
\@writefile{toc}{\contentsline {subsection}{\numberline {3.2}Application of implicit Euler method and Crank-Nicolson scheme}{7}{subsection.3.2}}
\@writefile{lof}{\contentsline {figure}{\numberline {7}{\ignorespaces The solution the heat equation on times $t_F=0.05$ and $t_F = 0.5$ seconds for $\mu =0.51$.We can clearly see that the solution explodes due to the instability of the scheme (hence the scale of the y-axis).\relax }}{8}{figure.caption.8}}
\newlabel{fig:eulerunstable}{{7}{8}{The solution the heat equation on times $t_F=0.05$ and $t_F = 0.5$ seconds for $\mu =0.51$.We can clearly see that the solution explodes due to the instability of the scheme (hence the scale of the y-axis).\relax }{figure.caption.8}{}}
\@writefile{lot}{\contentsline {table}{\numberline {1}{\ignorespaces Maximal error for the implicit Euler method in function of $\Delta x$ and $\Delta t$.\relax }}{8}{table.caption.9}}
\newlabel{tab:errimp}{{1}{8}{Maximal error for the implicit Euler method in function of $\Delta x$ and $\Delta t$.\relax }{table.caption.9}{}}
\@writefile{lot}{\contentsline {table}{\numberline {2}{\ignorespaces Maximal error for the Crank-Nicolson method in function of $\Delta x$ and $\Delta t$.\relax }}{8}{table.caption.10}}
\newlabel{tab:errcn}{{2}{8}{Maximal error for the Crank-Nicolson method in function of $\Delta x$ and $\Delta t$.\relax }{table.caption.10}{}}
\@writefile{lof}{\contentsline {figure}{\numberline {8}{\ignorespaces The numerical solution of the viscous Burgers' equation on times $t_F=0, \dots  , 1$ seconds.\relax }}{9}{figure.caption.11}}
\newlabel{fig:burgersequation}{{8}{9}{The numerical solution of the viscous Burgers' equation on times $t_F=0, \dots , 1$ seconds.\relax }{figure.caption.11}{}}
\@writefile{toc}{\contentsline {section}{\numberline {4}Implementation and application of two nonlinear problems}{9}{section.4}}
\@writefile{toc}{\contentsline {subsection}{\numberline {4.1}The viscous Burgers' equation}{9}{subsection.4.1}}
\@writefile{lof}{\contentsline {figure}{\numberline {9}{\ignorespaces The numerical solution of the phase-field equation on times $t_F=0, \dots  , 5$ seconds.\relax }}{10}{figure.caption.12}}
\newlabel{fig:phasefield}{{9}{10}{The numerical solution of the phase-field equation on times $t_F=0, \dots , 5$ seconds.\relax }{figure.caption.12}{}}
\@writefile{toc}{\contentsline {subsection}{\numberline {4.2}The phase-field equation}{10}{subsection.4.2}}
\newlabel{LastPage}{{}{10}{}{page.10}{}}
\xdef\lastpage@lastpage{10}
\xdef\lastpage@lastpageHy{10}
